{
  "parent": "forge:item/default",
  "loader": "forge:bucket",
  "fluid": "futurepack:salt_water",
  "textures": {
    "base": "forge:items/bucket_base",
    "fluid": "forge:items/bucket_fluid"
  }
}