{
    "parent": "item/handheld",
    "textures": {
        "layer0": "futurepack:items/tools/scrench"
    },
    "overrides": [
        {
            "predicate": {
                "rotate": 1
            },
            "model": "futurepack:item/scrench_rotate"
        }
    ]
}
