{
    "parent": "item/generated",
    "textures": {
        "layer0": "futurepack:items/tools/block_egger"
    },
    "overrides": [
        {
            "predicate": {
                "full": 1
            },
            "model": "futurepack:item/spawner_chest_full"
        }
    ]
}
