{
  "variants": {
    "lit=false": {
      "model": "futurepack:block/color_neon_lamp_cyan_model_off"
    },
    "lit=true": {
      "model": "futurepack:block/color_neon_lamp_cyan_model_on"
    }
  }
}