{
    "variants": {
        "zcon=none": { "model": "futurepack:block/tank_mk3_base"},
        "zcon=up": { "model": "futurepack:block/tank_mk3_up"},
        "zcon=down": { "model": "futurepack:block/tank_mk3_down"},
        "zcon=both": { "model": "futurepack:block/tank_mk3_both"}
        
    }
}
