{
    "variants": {
        "axis=y":    { "model": "futurepack:block/fuelcell" },
        "axis=z":     { "model": "futurepack:block/fuelcell" ,"x":90},
        "axis=x":     { "model": "futurepack:block/fuelcell", "y": 90, "x":90 }
    }
}
