{
    "multipart": [
        {
        	"when":  { "powered": "false" },
        	"apply": { "model": "futurepack:block/pipe_main_support_off" }
        },
        {
        	"when":  { "powered": "true" },
        	"apply": { "model": "futurepack:block/pipe_main_support_on" }
        },
        {
        	"when":  { "north": "on", "powered": "false" },
            "apply": { "model": "futurepack:block/pipe_side_support_off", "uvlock": false }
        },
        {   "when": { "east": "on", "powered": "false" },
            "apply": { "model": "futurepack:block/pipe_side_support_off", "y": 90, "uvlock": false }
        },
        {   "when": { "south": "on", "powered": "false" },
            "apply": { "model": "futurepack:block/pipe_side_support_off", "y": 180, "uvlock": false }
        },
        {   "when": { "west": "on", "powered": "false" },
            "apply": { "model": "futurepack:block/pipe_side_support_off", "y": 270, "uvlock": false }
        },
        {	"when": { "up": "on", "powered": "false"},
        	"apply": { "model": "futurepack:block/pipe_side_support_off", "x": 270 , "uvlock": false}
        },
        {	"when": { "down": "on", "powered": "false"},
        	"apply": { "model": "futurepack:block/pipe_side_support_off", "x": 90, "uvlock": false}
        },
        {
        	"when":  { "north": "on", "powered": "true" },
            "apply": { "model": "futurepack:block/pipe_side_support_on", "uvlock": false }
        },
        {   "when": { "east": "on", "powered": "true" },
            "apply": { "model": "futurepack:block/pipe_side_support_on", "y": 90, "uvlock": false }
        },
        {   "when": { "south": "on", "powered": "true" },
            "apply": { "model": "futurepack:block/pipe_side_support_on", "y": 180, "uvlock": false }
        },
        {   "when": { "west": "on", "powered": "true" },
            "apply": { "model": "futurepack:block/pipe_side_support_on", "y": 270, "uvlock": false }
        },
        {	"when": { "up": "on", "powered": "true"},
        	"apply": { "model": "futurepack:block/pipe_side_support_on", "x": 270 , "uvlock": false}
        },
        {	"when": { "down": "on", "powered": "true"},
        	"apply": { "model": "futurepack:block/pipe_side_support_on", "x": 90, "uvlock": false}
        },
        {
        	"when":  { "north": "cable", "powered": "false" },
            "apply": { "model": "futurepack:block/pipe_cable_support_off", "uvlock": false }
        },
        {   "when": { "east": "cable", "powered": "false" },
            "apply": { "model": "futurepack:block/pipe_cable_support_off", "y": 90, "uvlock": false }
        },
        {   "when": { "south": "cable", "powered": "false" },
            "apply": { "model": "futurepack:block/pipe_cable_support_off", "y": 180, "uvlock": false }
        },
        {   "when": { "west": "cable", "powered": "false" },
            "apply": { "model": "futurepack:block/pipe_cable_support_off", "y": 270, "uvlock": false }
        },
        {	"when": { "up": "cable", "powered": "false"},
        	"apply": { "model": "futurepack:block/pipe_cable_support_off", "x": 270 , "uvlock": false}
        },
        {	"when": { "down": "cable", "powered": "false"},
        	"apply": { "model": "futurepack:block/pipe_cable_support_off", "x": 90, "uvlock": false}
        },
        {
        	"when":  { "north": "cable", "powered": "true" },
            "apply": { "model": "futurepack:block/pipe_cable_support_on", "uvlock": false }
        },
        {   "when": { "east": "cable", "powered": "true" },
            "apply": { "model": "futurepack:block/pipe_cable_support_on", "y": 90, "uvlock": false }
        },
        {   "when": { "south": "cable", "powered": "true" },
            "apply": { "model": "futurepack:block/pipe_cable_support_on", "y": 180, "uvlock": false }
        },
        {   "when": { "west": "cable", "powered": "true" },
            "apply": { "model": "futurepack:block/pipe_cable_support_on", "y": 270, "uvlock": false }
        },
        {	"when": { "up": "cable", "powered": "true"},
        	"apply": { "model": "futurepack:block/pipe_cable_support_on", "x": 270 , "uvlock": false}
        },
        {	"when": { "down": "cable", "powered": "true"},
        	"apply": { "model": "futurepack:block/pipe_cable_support_on", "x": 90, "uvlock": false}
        }
    ]
}
