{
    "parent": "block/half_slab",
    "textures": {
        "bottom": "futurepack:blocks/luftung_11",
        "top": "futurepack:blocks/luftung_11",
        "side": "futurepack:blocks/color_iron_11"
    }
}
