{
    "parent": "block/upper_slab",
    "textures": {
        "bottom": "futurepack:blocks/luftung_12",
        "top": "futurepack:blocks/luftung_12",
        "side": "futurepack:blocks/color_iron_12"
    }
}
