{
    "parent": "block/half_slab",
    "textures": {
        "bottom": "futurepack:blocks/color_iron_1",
        "top": "futurepack:blocks/color_iron_1",
        "side": "futurepack:blocks/color_iron_1"
    }
}
