{
    "parent": "block/inner_stairs",
    "textures": {
        "bottom": "futurepack:blocks/color_iron_3",
        "top": "futurepack:blocks/color_iron_3",
        "side": "futurepack:blocks/color_iron_3"
    }
}
