{
    "parent": "block/upper_slab",
    "textures": {
        "bottom": "futurepack:blocks/color_iron_7",
        "top": "futurepack:blocks/color_iron_7",
        "side": "futurepack:blocks/color_iron_7"
    }
}
