{
    "parent": "futurepack:block/mushroom",
    "textures": {
        "up": "futurepack:blocks/pilz_front",
		"south": "futurepack:blocks/pilz_front",
		"east": "futurepack:blocks/pilz_front"
    }
}
