{
    "parent": "futurepack:block/mushroom",
    "textures": {
       "particle": "futurepack:blocks/pilz_front",
        "up": "futurepack:blocks/pilz_front",
		"down": "futurepack:blocks/pilz_front",
		"north": "futurepack:blocks/pilz_front",
		"south": "futurepack:blocks/pilz_front",
		"east": "futurepack:blocks/pilz_front",
		"west": "futurepack:blocks/pilz_front"
    }
}
