{
	"type": "recycler_laser",
	"recipes": [
	  {
	    "chance": [
	      0.60,
	      0.05
	    ],
	    "time": 20,
	    "output": [
	      {
	        "size": 1,
	        "name": "minecraft:iron_ingot"
	      },
	      {
	        "size": 6,
	        "name": "minecraft:iron_nugget"
	      }
	    ],
	    "input": {
	      "size": 1,
	      "name": "minecraft:iron_bars"
	    }
	  },
	  {
	    "chance": [
	      0.70,
	      0.30,
	      0.10
	    ],
	    "time": 400,
	    "output": [
	      {
	        "size": 3,
	        "name": "minecraft:iron_block"
	      },
	      {
	        "size": 4,
	        "name": "minecraft:iron_ingot"
	      },
	      {
	        "size": 3,
	        "name": "minecraft:iron_nugget"
	      }
	    ],
	    "input": {
	      "size": 1,
	      "name": "minecraft:anvil"
	    }
	  },
	  {
	    "chance": [
	      0.75
	    ],
	    "time": 10,
	    "output": [
	      {
	        "size": 3,
	        "name": "minecraft:brick"
	      }
	    ],
	    "input": {
	      "size": 1,
	      "name": "minecraft:flower_pot"
	    }
	  },
	  {
	    "chance": [
	      0.60
	    ],
	    "time": 60,
	    "output": [
	      {
	        "size": 5,
	        "name": "minecraft:iron_ingot"
	      }
	    ],
	    "input": {
	      "size": 1,
	      "name": "minecraft:minecart"
	    }
	  },
	  {
	    "chance": [
	      0.60
	    ],
	    "time": 20,
	    "output": [
	      {
	        "size": 3,
	        "name": "minecraft:iron_ingot"
	      }
	    ],
	    "input": {
	      "size": 1,
	      "name": "minecraft:bucket"
	    }
	  },
	  {
	    "chance": [
	      0.60,
	      0.85
	    ],
	    "time": 60,
	    "output": [
	      {
	        "size": 3,
	        "name": "minecraft:cobblestone"
	      },
	      {
	        "size": 1,
	        "name": "minecraft:blaze_rod"
	      }
	    ],
	    "input": {
	      "size": 1,
	      "name": "minecraft:brewing_stand"
	    }
	  },
	  {
	    "chance": [
	      0.60
	    ],
	    "time": 80,
	    "output": [
	      {
	        "size": 7,
	        "name": "minecraft:iron_ingot"
	      }
	    ],
	    "input": {
	      "size": 1,
	      "name": "minecraft:cauldron"
	    }
	  },
	  {
	    "chance": [
	      1.00,
	      0.5
	    ],
	    "time": 60,
	    "output": [
	      {
	        "size": 3,
	        "name": "minecraft:iron_ingot"
	      },
	      {
	        "size": 3,
	        "name": "minecraft:iron_ingot"
	      }
	    ],
	    "input": {
	      "size": 1,
	      "name": "minecraft:iron_horse_armor"
	    }
	  },
	  {
	    "chance": [
	      1.00,
	      0.5
	    ],
	    "time": 50,
	    "output": [
	      {
	        "size": 3,
	        "name": "minecraft:gold_ingot"
	      },
	      {
	        "size": 3,
	        "name": "minecraft:gold_ingot"
	      }
	    ],
	    "input": {
	      "size": 1,
	      "name": "minecraft:golden_horse_armor"
	    }
	  },
	  {
	    "chance": [
	      0.95,
	      0.45
	    ],
	    "time": 600,
	    "output": [
	      {
	        "size": 3,
	        "name": "minecraft:diamond"
	      },
	      {
	        "size": 3,
	        "name": "minecraft:diamond"
	      }
	    ],
	    "input": {
	      "size": 1,
	      "name": "minecraft:diamond_horse_armor"
	    }
	  },
	  {
	    "chance": [
	      1.00,
	      0.25
	    ],
	    "time": 5,
	    "output": [
	      {
	        "size": 1,
	        "name": "minecraft:stick"
	      },
	      {
	        "size": 1,
	        "name": "minecraft:coal"
	      }
	    ],
	    "input": {
	      "size": 1,
	      "name": "minecraft:wooden_sword"
	    }
	  },
	  {
	    "chance": [
	      1.00,
	      0.125
	    ],
	    "time": 5,
	    "output": [
	      {
	        "size": 2,
	        "name": "minecraft:stick"
	      },
	      {
	        "size": 1,
	        "name": "minecraft:coal"
	      }
	    ],
	    "input": {
	      "size": 1,
	      "name": "minecraft:wooden_shovel"
	    }
	  },
	  {
	    "chance": [
	      1.00,
	      0.33
	    ],
	    "time": 5,
	    "output": [
	      {
	        "size": 2,
	        "name": "minecraft:stick"
	      },
	      {
	        "size": 1,
	        "name": "minecraft:coal"
	      }
	    ],
	    "input": {
	      "size": 1,
	      "name": "minecraft:wooden_pickaxe"
	    }
	  },
	  {
	    "chance": [
	      1.00,
	      0.33
	    ],
	    "time": 5,
	    "output": [
	      {
	        "size": 2,
	        "name": "minecraft:stick"
	      },
	      {
	        "size": 1,
	        "name": "minecraft:coal"
	      }
	    ],
	    "input": {
	      "size": 1,
	      "name": "minecraft:wooden_axe"
	    }
	  },
	  {
	    "chance": [
	      1.00,
	      0.25
	    ],
	    "time": 5,
	    "output": [
	      {
	        "size": 2,
	        "name": "minecraft:stick"
	      },
	      {
	        "size": 1,
	        "name": "minecraft:coal"
	      }
	    ],
	    "input": {
	      "size": 1,
	      "name": "minecraft:wooden_hoe"
	    }
	  },
	  {
	    "chance": [
	      0.90,
	      0.50
	    ],
	    "time": 10,
	    "output": [
	      {
	        "size": 3,
	        "name": "minecraft:stick"
	      },
	      {
	        "size": 2,
	        "name": "minecraft:string"
	      }
	    ],
	    "input": {
	      "size": 1,
	      "name": "minecraft:fishing_rod"
	    }
	  },
	  {
	    "chance": [
	      0.90,
	      0.50
	    ],
	    "time": 10,
	    "output": [
	      {
	        "size": 3,
	        "name": "minecraft:stick"
	      },
	      {
	        "size": 3,
	        "name": "minecraft:string"
	      }
	    ],
	    "input": {
	      "size": 1,
	      "name": "minecraft:bow"
	    }
	  },
	  {
	    "chance": [
	      0.60,
	      0.05
	    ],
	    "time": 5,
	    "output": [
	      {
	        "size": 1,
	        "tag": "forge:ingots/aluminum"
	      },
	      {
	        "size": 1,
	        "name": "minecraft:gunpowder"
	      }
	    ],
	    "input": {
	      "size": 1,
	      "name": "futurepack:grenade_empty"
	    }
	  },
	  {
	    "chance": [
	      0.25,
	      0.10
	    ],
	    "time": 5,
	    "output": [
	      {
	        "size": 1,
	        "tag": "forge:ingots/aluminum"
	      },
	      {
	        "size": 1,
	        "tag": "forge:ingots/neon"
	      }
	    ],
	    "input": {
	      "size": 1,
	      "name": "futurepack:wire_normal"
	    }
	  },
	  {
	    "chance": [
	      0.40,
	      0.60,
	      0.40,
	      0.40
	    ],
	    "time": 80,
	    "output": [
	      {
	        "size": 1,
	        "name": "futurepack:metal_block"
	      },
	      {
	        "size": 1,
	        "name": "minecraft:glass"
	      },
	      {
	        "size": 1,
	        "tag": "forge:ingots/magnetite"
	      },
	      {
	        "size": 1,
	        "tag": "forge:dusts/glowstone"
	      }
	    ],
	    "input": {
	      "size": 1,
	      "name": "futurepack:color_plasma_lamp_white"
	    }
	  },
	  {
	    "chance": [
	      0.40,
	      0.60,
	      0.40,
	      0.40
	    ],
	    "time": 80,
	    "output": [
	      {
	        "size": 1,
	        "name": "futurepack:metal_block"
	      },
	      {
	        "size": 1,
	        "name": "minecraft:glass"
	      },
	      {
	        "size": 1,
	        "tag": "forge:dusts/neon"
	      },
	      {
	        "size": 1,
	        "tag": "forge:dusts/redstone"
	      }
	    ],
	    "input": {
	      "size": 1,
	      "name": "futurepack:color_neon_lamp_white"
	    }
	  },
	  {
	    "chance": [
	      0.80,
	      0.80,
	      0.60
	    ],
	    "time": 60,
	    "output": [
	      {
	        "size": 3,
	        "tag": "forge:ingots/copper"
	      },
	      {
	        "size": 2,
	        "tag": "forge:ingots/iron"
	      },
	      {
	        "size": 4,
	        "name": "futurepack:coil_copper"
	      }
	    ],
	    "input": {
	      "size": 1,
	      "name": "futurepack:extern_cooler"
	    }
	  },
	  {
	    "chance": [
	      0.60,
	      0.80
	    ],
	    "time": 40,
	    "output": [
	      {
	        "size": 7,
	        "tag": "forge:ingots/iron"
	      },
	      {
	        "size": 2,
	        "name": "minecraft:coal"
	      }
	    ],
	    "input": {
	      "size": 1,
	      "name": "futurepack:techtable"
	    }
	  },
	  {
	    "chance": [
	      0.90,
	      0.60
	    ],
	    "time": 20,
	    "output": [
	      {
	        "size": 6,
	        "tag": "forge:ingots/aluminum"
	      },
	      {
	        "size": 1,
	        "name": "futurepack:metal_block"
	      }
	    ],
	    "input": {
	      "size": 1,
	      "name": "futurepack:wardrobe_white_normal_1"
	    }
	  },
	  {
	    "chance": [
	      0.85
	    ],
	    "time": 5,
	    "output": [
	      {
	        "size": 6,
	        "name": "minecraft:iron_nugget"
	      }
	    ],
	    "input": {
	      "size": 1,
	      "name": "futurepack:ironladder"
	    }
	  },
	  {
	    "chance": [
	      0.95
	    ],
	    "time": 5,
	    "output": [
	      {
	        "size": 1,
	        "name": "futurepack:composite_metal"
	      }
	    ],
	    "input": {
	      "size": 1,
	      "name": "futurepack:metal_block"
	    }
	  },
	  {
	    "chance": [
	      0.60,
	      0.60
	    ],
	    "time": 5,
	    "output": [
	      {
	        "size": 1,
	        "name": "futurepack:composite_metal"
	      },
	      {
	        "size": 1,
	        "name": "minecraft:iron_bars"
	      }
	    ],
	    "input": {
	      "size": 1,
	      "name": "futurepack:metal_block_ventilation"
	    }
	  },
	  {
	    "chance": [
	      0.15,
	      0.60
	    ],
	    "time": 5,
	    "output": [
	      {
	        "size": 1,
	        "name": "futurepack:composite_metal"
	      },
	      {
	        "size": 1,
	        "name": "minecraft:iron_bars"
	      }
	    ],
	    "input": {
	      "size": 1,
	      "name": "futurepack:metal_block_gitter"
	    }
	  },
	  {
	    "chance": [
	      0.05,
	      0.30
	    ],
	    "time": 5,
	    "output": [
	      {
	        "size": 1,
	        "name": "futurepack:composite_metal"
	      },
	      {
	        "size": 1,
	        "name": "minecraft:iron_bars"
	      }
	    ],
	    "input": {
	      "size": 1,
	      "name": "futurepack:metal_gitter_pane"
	    }
	  },
	  {
	    "chance": [
	      0.05,
	      0.30
	    ],
	    "time": 5,
	    "output": [
	      {
	        "size": 1,
	        "name": "futurepack:composite_metal"
	      },
	      {
	        "size": 1,
	        "name": "minecraft:iron_bars"
	      }
	    ],
	    "input": {
	      "size": 1,
	      "name": "futurepack:metal_gitter_slab"
	    }
	  },
	  {
	    "chance": [
	      0.05,
	      0.40
	    ],
	    "time": 5,
	    "output": [
	      {
	        "size": 1,
	        "name": "futurepack:composite_metal"
	      },
	      {
	        "size": 1,
	        "name": "minecraft:iron_bars"
	      }
	    ],
	    "input": {
	      "size": 1,
	      "name": "futurepack:metal_stair_gitter"
	    }
	  },
	  {
	    "chance": [
	      0.85
	    ],
	    "time": 5,
	    "output": [
	      {
	        "size": 6,
	        "name": "futurepack:composite_metal"
	      }
	    ],
	    "input": {
	      "size": 1,
	      "name": "futurepack:metal_stair"
	    }
	  },
	  {
	    "chance": [
	      0.95
	    ],
	    "time": 5,
	    "output": [
	      {
	        "size": 1,
	        "name": "futurepack:composite_metal"
	      }
	    ],
	    "input": {
	      "size": 1,
	      "name": "futurepack:metal_fence"
	    }
	  },
	  {
	    "chance": [
	      0.30,
	      0.30
	    ],
	    "time": 5,
	    "output": [
	      {
	        "size": 1,
	        "name": "futurepack:composite_metal"
	      },
	      {
	        "size": 1,
	        "name": "minecraft:iron_bars"
	      }
	    ],
	    "input": {
	      "size": 1,
	      "name": "futurepack:metal_ventilation_slab"
	    }
	  },
	  {
	    "chance": [
	      0.50
	    ],
	    "time": 5,
	    "output": [
	      {
	        "size": 1,
	        "name": "futurepack:composite_metal"
	      }
	    ],
	    "input": {
	      "size": 1,
	      "name": "futurepack:metal_slab"
	    }
	  },
	  {
	    "chance": [
	      0.45,
	      0.50
	    ],
	    "time": 5,
	    "output": [
	      {
	        "size": 1,
	        "name": "futurepack:metal_block"
	      },
	      {
	        "size": 1,
	        "name": "minecraft:glass"
	      }
	    ],
	    "input": {
	      "size": 1,
	      "name": "futurepack:color_glass_white"
	    }
	  }
	]
}