{
    "pools": 
    [
		{
            "name":"grenades",
            "rolls": 
            {
                "min": 1,
                "max": 3
            },
            "entries": 
            [
				{
                    "type": "item",
                    "name": "futurepack:grenade_empty",
                    "weight": 20
                },
                {
                    "type": "item",
                    "name": "futurepack:grenade_plasma",
                    "weight": 30
                },
                {
                    "type": "item",
                    "name": "futurepack:grenade_blaze",
                    "weight": 10
                },
                {
                    "type":"empty",
                    "weight":40
                }
				
            ],
            "functions": 
            [
                 {
                  	"function": "set_count",
            		"count": 1
                }
            ]
        },
		{
			"name":"common_things",
			"rolls":
			{
                "min": 3,
                "max": 4
            },
			"entries": 
			[
				{
					"type": "loot_table",
					"name": "futurepack:chests/loots/fp_craft",
					"weight": 80
				},
                {
                    "type":"empty",
                    "weight":20
                }      
			]
		}
    ]
}