{
  "type": "futurepack:research_shaped",
  "group": "futurepack",
  "pattern": [
    "ABA",
    "NTN",
    "ALA"
  ],
  "key": {
    "A": {
      "tag": "forge:ingots/aluminum"
    },
    "B": {
      "item": "minecraft:stone_button"
    },
    "N": {
      "tag": "forge:ingots/neon"
    },
    "T": {
      "item": "futurepack:chip_transport"
    },
    "L": {
      "item": "futurepack:battery_l"
    }
  },
  "result": {
    "item": "futurepack:teleporter"
  }
}