{
  "type": "futurepack:research_shaped",
  "group": "futurepack",
  "pattern": [
    "BBB"
  ],
  "key": {
    "B": {
      "item": "futurepack:color_luftung_purple"
    }
  },
  "result": {
    "item": "futurepack:color_luftung_slab_purple",
    "count": 6
  }
}