{
  "type": "futurepack:research_shaped",
  "group": "futurepack",
  "pattern": [
    "  S",
    " SF",
    "C F"
  ],
  "key": {
    "C": {
      "item": "futurepack:composite_metal"
    },
    "S": {
      "tag": "forge:rods/iron"
    },
    "F": {
      "tag": "forge:string"
    }
  },
  "result": {
    "item": "futurepack:composite_fishing_rod"
  }
}