{
  "type": "futurepack:research_shaped",
  "group": "futurepack",
  "pattern": [
    " SK",
    "CDS",
    "TCI"
  ],
  "key": {
    "C": {
      "tag": "forge:ingots/aluminum"
    },
    "I": {
      "tag": "forge:rods/iron"
    },
    "T": {
      "item": "futurepack:battery_n"
    },
    "K": {
      "item": "minecraft:diamond_block"
    },
    "D": {
      "item": "futurepack:drill_mk1"
    },
    "S": {
      "item": "futurepack:coil_quantanium"
    }
  },
  "result": {
    "item": "futurepack:drill_mk2"
  }
}