{
  "type": "minecraft:crafting_shaped",
  "group": "futurepack",
  "pattern": [
    "EEE",
    "EEE",
    "EEE"
  ],
  "key": {
    "E": {
      "tag": "forge:ingots/quantanium"
    }
  },
  "result": {
    "item": "futurepack:block_compressed_quantanium"
  }
}