{
  "type": "futurepack:research_shaped",
  "group": "futurepack",
  "pattern": [
    "ITI",
    "IPI",
    "ITI"
  ],
  "key": {
    "I": {
      "tag": "forge:ingots/iron"
    },
    "T": {
      "item": "futurepack:lack_tank_empty"
    },
    "P": {
      "item": "futurepack:parts_copper"
    }
  },
  "result": {
    "item": "futurepack:fermentation_barrel"
  }
}