{
  "type": "futurepack:research_shaped",
  "group": "futurepack",
  "pattern": [
    "CDC",
    "BMP",
    "ZKZ"
  ],
  "key": {
    "C": [
      {
        "tag": "forge:gems/neon"
      },
      {
        "tag": "forge:gems/retium"
      },
      {
        "tag": "forge:gems/glowtite"
      },
      {
        "tag": "forge:gems/bioterium"
      },
      {
        "tag": "forge:gems/aluminum"
      }
    ],
    "D": {
      "tag": "forge:glass_panes"
    },
    "Z": {
      "tag": "forge:ingots/zinc"
    },
    "M": {
      "item": "futurepack:color_iron_black"
    },
    "K": {
      "item": "futurepack:parts_iron"
    },
    "P": {
      "item": "minecraft:piston"
    },
    "B": {
      "tag": "forge:paper"
    }
  },
  "result": {
    "item": "futurepack:researcher_black"
  }
}