{
  "type": "futurepack:research_shaped",
  "group": "futurepack",
  "pattern": [
    "TAA",
    "TSC",
    "TAA"
  ],
  "key": {
    "T": {
      "item": "futurepack:lack_tank_empty"
    },
    "A": {
      "tag": "forge:ingots/aluminum"
    },
    "C": {
      "tag": "forge:chests/wooden"
    },
    "S": {
      "tag": "forge:rods/iron"
    }
  },
  "result": {
    "item": "futurepack:fuel_cell"
  }
}