{
  "type": "futurepack:research_shaped",
  "group": "futurepack",
  "pattern": [
    "MM ",
    "GG ",
    "MM "
  ],
  "key": {
    "M": {
      "item": "futurepack:ingot_aluminium"
    },
    "G": {
      "item": "minecraft:glass"
    }
  },
  "result": {
    "item": "futurepack:glass_door",
    "count": 3
  }
}