{
  "type": "futurepack:research_shapeless",
  "group": "futurepack",
  "ingredients": [
    {
      "item": "futurepack:grenade_empty"
    },
    {
      "item": "minecraft:blaze_powder"
    }
  ],
  "result": {
    "item": "futurepack:grenade_blaze",
    "nbt": {
      "size": 1
    }
  }
}