{
  "type": "futurepack:maschin_shaped",
  "group": "futurepack",
  "pattern": [
    "CGC",
    "CGC",
    "NPN"
  ],
  "key": {
    "G": {
      "item": "futurepack:metal_block_gitter"
    },
    "C": {
      "item": "futurepack:coil_neon"
    },
    "N": {
      "tag": "forge:ingots/neodymium"
    },
    "P": {
      "item": "futurepack:solar_panel_white"
    }
  },
  "result": {
    "item": "futurepack:ion_collector_white"
  }
}