{
  "type": "futurepack:research_shaped",
  "group": "futurepack",
  "pattern": [
    "AIA",
    "III",
    " I "
  ],
  "key": {
    "A": [
      {
        "tag": "forge:ingots/aluminum"
      }
    ],
    "I": [
      {
        "tag": "forge:ingots/netherite"
      }
    ]
  },
  "result": {
    "item": "futurepack:modul_panzer_netherite"
  }
}