{
  "type": "futurepack:research_shaped",
  "group": "futurepack",
  "pattern": [
    "TWT",
    "AHA"
  ],
  "key": {
    "T": {
      "item": "futurepack:astrofood2"
    },
    "H": { 
    	"item": "minecraft:hopper"
    },
    "W": {
    	"item":"minecraft:water_bucket"
    },
    "A": [
      {
        "tag": "forge:ingots/aluminum"
      }
    ]
  },
  "result": {
    "item": "futurepack:modul_fire_shield"
  }
}