{
  "type": "futurepack:research_shaped",
  "group": "futurepack",
  "pattern": [
    " N ",
    "PPP"
  ],
  "key": {
    "N": {
      "tag": "forge:ingots/neon"
    },
    "P": {
      "item": "futurepack:pipe_normal"
    }
  },
  "result": {
    "item": "futurepack:pipe_neon",
    "count": 3
  }
}