{
  "type": "futurepack:research_shaped",
  "group": "futurepack",
  "pattern": [
    "MCM",
    "NJN",
    "IBI"
  ],
  "key": {
    "M": {
      "tag": "forge:ingots/magnetite"
    },
    "C": {
      "item": "futurepack:composite_metal"
    },
    "N": {
      "tag": "forge:ingots/neon"
    },
    "J": {
      "item": "futurepack:plasma_jar"
    },
    "I": {
    	"tag": "forge:rods/iron"
    },
    "B": {
    	"item": "futurepack:color_iron_light_gray"
    }
  },
  "result": {
    "item": "futurepack:plasma_converter_t0"
  }
}