{
  "type": "futurepack:research_shaped",
  "group": "futurepack",
  "pattern": [
    "AAA",
    "CRB",
    "AAA"
  ],
  "key": {
    "A": {
      "tag": "forge:ingots/aluminum"
    },
    "B": {
      "item": "minecraft:bow"
    },
    "R": {
      "tag": "forge:dusts/redstone"
    },
    "C": {
      "tag": "forge:chests/wooden"
    }
  },
  "result": {
    "item": "futurepack:pusher"
  }
}