{
  "type": "futurepack:research_shaped",
  "group": "futurepack",
  "pattern": [
    "RMR",
    "RCR",
    "RMR"
  ],
  "key": {
    "R": {
      "tag": "forge:ingots/retium"
    },
    "M": {
      "item": "futurepack:magnet"
    },
    "C": {
      "item": "futurepack:block_crystal_neon"
    }
  },
  "result": {
    "item": "futurepack:gravity_pulser"
  }
}