{
  "type": "futurepack:research_shaped",
  "group": "futurepack",
  "pattern": [
    "ACA",
    "TMT",
    " S "
  ],
  "key": {
    "A": {
      "tag": "forge:ingots/aluminum"
    },
    "T": {
      "item": "futurepack:lack_tank_empty"
    },
    "C": {
      "item": "futurepack:chip_logic"
    },
    "M": {
      "tag": "forge:ingots/magnetite"
    },
    "S": {
      "item": "futurepack:coil_copper"
    }
  },
  "result": {
    "item": "futurepack:oxygen_tank"
  }
}