{
  "type": "futurepack:research_shaped",
  "group": "futurepack",
  "pattern": [
    "CSC",
    "IMI",
    "KBK"
  ],
  "key": {
    "C": [
      {
        "tag": "forge:gems/neon"
      },
      {
        "tag": "forge:gems/retium"
      },
      {
        "tag": "forge:gems/glowtite"
      },
      {
        "tag": "forge:gems/bioterium"
      },
      {
        "tag": "forge:gems/aluminum"
      }
    ],
    "S": [
      {
        "item": "futurepack:escanner"
      },
      {
        "item": "futurepack:escanner"
      }
    ],
    "I": {
      "tag": "forge:ingots/iron"
    },
    "M": {
      "item": "futurepack:color_iron_black"
    },
    "K": {
      "item": "futurepack:coil_copper"
    },
    "B": {
      "item": "futurepack:parts_iron"
    }
  },
  "result": {
    "item": "futurepack:scanner_block_black"
  }
}