{
  "type": "futurepack:research_shaped",
  "group": "futurepack",
  "pattern": [
    "CAC",
    "SLS",
    " R "
  ],
  "key": {
    "A": {
      "item": "futurepack:core_master"
    },
    "C": {
      "item": "futurepack:chip_support"
    },
    "S": {
      "item": "futurepack:coil_quantanium"
    },
    "L": {
      "item": "futurepack:laserdiode"
    },
    "R": {
      "item": "futurepack:lense_green"
    }
  },
  "result": {
    "item": "futurepack:timemanipulator"
  }
}