{
  "type": "futurepack:research_shaped",
  "group": "futurepack",
  "pattern": [
    "CGC",
    "PTP",
    "KKK"
  ],
  "key": {
    "C": {
      "item": "futurepack:composite_metal"
    },
    "K": {
      "tag": "forge:ingots/copper"
    },
    "P": {
      "item": "futurepack:pipe_normal"
    },
    "G": {
      "item": "futurepack:color_gitter_pane_white"
    },
    "T": {
      "item": "futurepack:lack_tank_empty"
    }
  },
  "result": {
    "item": "futurepack:water_cooler"
  }
}