{
    
    "forge_marker": 1,
    "defaults": {
        "model": "futurepack:cable_main",
        "textures": { "cable":"futurepack:blocks/cable_normal" }
    },
    "variants":
    {
        "b_down":{
            "false": {},  
            "true": {"submodel": "futurepack:cable_down"}
        },
        "b_east": {
            "false": {},  
            "true": {"submodel": "futurepack:cable_east"}
        },
        "b_north": {
            "false": {},
            "true": {"submodel": "futurepack:cable_north"}
        },
        "b_south": {
            "false": {},  
            "true": {"submodel": "futurepack:cable_south"}
        },
        "b_up": {
            "false": {},  
            "true": {"submodel": "futurepack:cable_up"}
        },
        "b_west": {
            "false": {},  
            "true": {"submodel": "futurepack:cable_west"}
        },
        "mode": {
            "normal": { "textures": { "cable":"futurepack:blocks/cable_normal" }},
            "network": { "textures": { "cable":"futurepack:blocks/cable_network" }},
            "redstone_in": { "textures": { "cable":"futurepack:blocks/cable_redstone_in" }},
            "redstone_off": { "textures": { "cable":"futurepack:blocks/cable_redstone_off" }},
            "redstone_on": { "textures": { "cable":"futurepack:blocks/cable_redstone_on" }},
            "super": { "textures": { "cable":"futurepack:blocks/cable_super" }},
            "support_off": { "textures": { "cable":"futurepack:blocks/cable_support_off" }},
            "support_on": { "textures": { "cable":"futurepack:blocks/cable_support_on" }},
            "l1":{},
            "l2":{}
        },
        "hologram":{"true":{}, "false":{}}
    }
}