{
    "type": "botanypots:crop",
    "conditions": [
        {
            "type": "forge:mod_loaded",
            "modid": "botanypots"
        }
    ],
    "seed": {
        "item": "futurepack:sapling_mushroom"
    },
    "categories": [
        "sand", "mycel"
    ],
    "growthTicks": 2400,
    "display": {
        "block": "futurepack:sapling_mushroom"
    },
    "results": [
        {
            "chance": 0.5,
            "output": {
                "item": "futurepack:log_mushroom"
            },
            "minRolls": 1,
            "maxRolls": 1
        },
        {
            "chance": 0.05,
            "output": {
                "item": "futurepack:sapling_mushroom"
            },
            "minRolls": 1,
            "maxRolls": 2
        }
    ]
}