[
  {
    "id": "assembly_chip",
    "page": "chips",
    "x": -4,
    "y": -4,
    "parents": [
      "assembly"
    ],
    "aspects": [],
    "level": 0,
    "time": 0,
    "need": [],
    "icon": {
      "name": "futurepack:assembly_table_white"
    },
    "enables": [
      {
        "name": "futurepack:assembly_table_white"
      },
      {
        "size": 1,
        "name": "futurepack:assembly_table_gray"
      },
      {
        "size": 1,
        "name": "futurepack:assembly_table_black"
      }
    ]
  },
  {
    "id": "motherboard",
    "page": "chips",
    "x": -2,
    "y": -4,
    "parents": [
      "assembly_chip"
    ],
    "aspects": [
      "energieverbindung",
      "chemie"
    ],
    "level": 1,
    "time": 300,
    "neon": 300,
    "need": [
      {
        "size": 8,
        "name": "futurepack:parts_quartz"
      },
      {
        "size": 2,
        "name": "futurepack:coil_copper"
      }
    ],
    "icon": {
      "name": "futurepack:maschineboard"
    },
    "enables": [
      {
        "name": "futurepack:maschineboard"
      }
    ],
	"rewards":
	[
	  {
        "size": 2,
        "name": "futurepack:maschineboard"
      }
	]
  },
  {
    "id": "tuning",
    "page": "chips",
    "x": 0,
    "y": -4,
    "parents": [
      "motherboard"
    ],
    "picon": "OVERCLOCK",
    "aspects": [],
    "level": 0,
    "time": 0,
    "need": [],
    "enables": []
  },
  {
    "id": "chips.cooler",
    "page": "chips",
    "x": 6,
    "y": -4,
    "parents": [
      "tuning",
      "thermodynamic"
    ],
    "aspects": [],
    "level": 0,
    "time": 0,
    "need": [],
    "icon": {
      "name": "futurepack:extern_cooler"
    },
    "enables": [
      {
        "name": "futurepack:extern_cooler"
      }
    ]
  },
  {
    "id": "chips.watercooler",
    "page": "chips",
    "x": 7,
    "y": -4,
    "parents": [
      "chips.cooler",
      "energy.wasser_turbine"
    ],
    "aspects": [
      "hydraulic",
      "maschinenbau",
      "thermodynamic"
    ],
    "level": 2,
    "time": 1200,
    "neon": 14400,
    "support": 40,
    "need": [
      {
        "size": 1,
        "name": "minecraft:water_bucket"
      },
      {
        "size": 8,
        "name": "minecraft:iron_bars"
      },
      {
        "size": 8,
        "tag": "forge:ingots/copper"
      }
    ],
    "icon": {
      "name": "futurepack:water_cooler"
    },
    "enables": [
      {
        "name": "futurepack:water_cooler"
      }
    ],
	"rewards":
	[
	  {
        "size": 1,
        "name": "futurepack:water_cooler"
      }
	]
  },
  {
    "id": "chips.externalcore",
    "page": "chips",
    "x": 6,
    "y": -3,
    "parents": [
      "production.recycler.timemanipulator",
      "chips.cooler"
    ],
    "aspects": [
      "maschinenbau",
      "logistik",
      "energieverbindung"
    ],
    "level": 3,
    "time": 3200,
    "neon": 307200,
    "support": 640,
    "expLvl": 600,
    "need": [
      {
        "name": "futurepack:timemanipulator"
      },
      {
        "size": 2,
        "tag": "forge:ingots/quantanium"
      },
      {
        "name": "futurepack:extern_cooler"
      },
      {
        "name": "futurepack:core_master"
      }
    ],
    "icon": {
      "name": "futurepack:external_core"
    },
    "enables": [
      {
        "name": "futurepack:external_core"
      }
    ],
	"rewards":
	[
	  {
        "size": 1,
        "name": "futurepack:external_core"
      }
	]
  },
  {
    "id": "chip.logic",
    "page": "chips",
    "x": -3,
    "y": 1,
    "parents": [
      "assembly_chip"
    ],
    "aspects": [],
    "level": 0,
    "time": 0,
    "need": [],
    "icon": {
      "name": "futurepack:chip_logic"
    },
    "enables": [
      {
        "name": "futurepack:chip_logic"
      }
    ]
  },
  {
    "id": "chip.tactic",
    "page": "chips",
    "x": -2,
    "y": 2,
    "parents": [
      "chip.logic"
    ],
    "aspects": [
      "biologie",
      "chemie"
    ],
    "level": 1,
    "time": 600,
    "neon": 2400,
    "need": [
      {
        "name": "futurepack:chip_logic"
      },
      {
        "size": 1,
        "name": "minecraft:golden_sword"
      }
    ],
    "icon": {
      "name": "futurepack:chip_tactic"
    },
    "enables": [
      {
        "name": "futurepack:chip_tactic"
      }
    ],
	"rewards":
	[
	  {
        "size": 1,
        "name": "futurepack:chip_tactic"
      }
	]
  },
  {
    "id": "chip.damage",
    "page": "chips",
    "x": -1,
    "y": 2,
    "parents": [
      "chip.logic"
    ],
    "aspects": [
      "metallurgie",
      "thermodynamic"
    ],
    "level": 1,
    "time": 600,
    "neon": 3200,
    "need": [
      {
        "size": 1,
        "name": "minecraft:flint_and_steel"
      },
      {
        "size": 2,
        "name": "futurepack:composite_metal"
      }
    ],
    "icon": {
      "name": "futurepack:chip_damage_control"
    },
    "enables": [
      {
        "name": "futurepack:chip_damage_control"
      }
    ],
	"rewards":
	[
	  {
        "size": 1,
        "name": "futurepack:chip_damage_control"
      }
	]
  },
  {
    "id": "chip.navigation",
    "page": "chips",
    "x": 0,
    "y": 2,
    "parents": [
      "chip.logic"
    ],
    "aspects": [
      "logistik",
      "geologie",
      "metallurgie"
    ],
    "level": 1,
    "time": 600,
    "neon": 3200,
    "need": [
      {
        "name": "futurepack:chip_logic"
      },
      {
        "size": 1,
        "name": "minecraft:compass"
      }
    ],
    "icon": {
      "name": "futurepack:chip_navigation"
    },
    "enables": [
      {
        "name": "futurepack:chip_navigation"
      }
    ],
	"rewards":
	[
	  {
        "size": 1,
        "name": "futurepack:chip_navigation"
      }
	]
  },
  {
    "id": "chip.transport",
    "page": "chips",
    "x": 1,
    "y": 2,
    "parents": [
      "chip.logic",
      "upgradeT2",
      "log.pusher"
    ],
    "aspects": [
      "logistik",
      "hydraulic"
    ],
    "level": 2,
    "time": 1200,
    "neon": 9600,
    "support": 20,
    "need": [
      {
        "name": "futurepack:chip_logic"
      },
      {
        "size": 1,
        "name": "minecraft:hopper"
      },
      {
        "size": 2,
        "name": "futurepack:pipe_normal"
      }
    ],
    "icon": {
      "name": "futurepack:chip_transport"
    },
    "enables": [
      {
        "name": "futurepack:chip_transport"
      }
    ],
	"rewards":
	[
	  {
        "size": 1,
        "name": "futurepack:chip_transport"
      }
	]
  },
  {
    "id": "chip.industrial",
    "page": "chips",
    "x": 2,
    "y": 2,
    "parents": [
      "chip.logic"
    ],
    "aspects": [
      "neonenergie",
      "energieverbindung"
    ],
    "level": 1,
    "time": 600,
    "neon": 9000,
    "need": [
      {
        "name": "futurepack:chip_logic"
      },
      {
        "size": 1,
        "name": "futurepack:battery_n"
      }
    ],
    "icon": {
      "name": "futurepack:chip_industrie"
    },
    "enables": [
      {
        "name": "futurepack:chip_industrie"
      }
    ],
	"rewards":
	[
	  {
        "size": 1,
        "name": "futurepack:chip_industrie"
      }
	]
  },
  {
    "id": "chip.ai",
    "page": "chips",
    "x": -2,
    "y": 3,
    "parents": [
      "chip.tactic",
      "upgradeT2",
      "aispeicher"
    ],
    "aspects": [
      "energieverbindung",
      "neonenergie",
      "biologie"
    ],
    "level": 2,
    "time": 800,
    "neon": 9600,
    "support": 48,
    "need": [
      {
        "size": 1,
        "name": "futurepack:chip_logic"
      },
      {
        "size": 1,
        "name": "futurepack:core_a1"
      },
      {
        "size": 1,
        "name": "futurepack:aiflash1"
      }
    ],
    "icon": {
      "name": "futurepack:chip_ai"
    },
    "enables": [
      {
        "name": "futurepack:chip_ai"
      }
    ],
	"rewards":
	[
	  {
        "size": 1,
        "name": "futurepack:chip_ai"
      }
	]
  },
  {
    "id": "chip.redstone",
    "page": "chips",
    "x": -1,
    "y": 3,
    "parents": [
      "chip.damage",
      "upgradeT2"
    ],
    "aspects": [
      "energieverbindung",
      "maschinenbau"
    ],
    "level": 2,
    "time": 600,
    "neon": 4800,
    "support": 8,
    "need": [
      {
        "size": 1,
        "name": "futurepack:chip_logic"
      },
      {
        "size": 1,
        "name": "minecraft:lever"
      },
      {
        "size": 2,
        "tag": "forge:dusts/redstone"
      }
    ],
    "icon": {
      "name": "futurepack:chip_redstone"
    },
    "enables": [
      {
        "name": "futurepack:chip_redstone"
      }
    ],
	"rewards":
	[
	  {
        "size": 1,
        "name": "futurepack:chip_redstone"
      }
	]
  },
  {
    "id": "chip.network",
    "page": "chips",
    "x": 0,
    "y": 3,
    "parents": [
      "chip.navigation",
      "netzwerke"
    ],
    "aspects": [
      "logistik",
      "morphologie",
      "energieverbindung"
    ],
    "level": 2,
    "time": 2400,
    "neon": 38400,
    "support": 60,
    "need": [
      {
        "size": 1,
        "name": "futurepack:chip_logic"
      },
      {
        "size": 2,
        "tag": "forge:ingots/wakurium"
      },
      {
        "size": 1,
        "name": "minecraft:comparator"
      }
    ],
    "icon": {
      "name": "futurepack:chip_network"
    },
    "enables": [
      {
        "name": "futurepack:chip_network"
      }
    ],
	"rewards":
	[
	  {
        "size": 1,
        "name": "futurepack:chip_network"
      }
	]
  },
  {
    "id": "chip.support",
    "page": "chips",
    "x": 1,
    "y": 3,
    "parents": [
      "chip.transport",
      "surveyscan.menelaus"
    ],
    "aspects": [
      "energieverbindung",
      "metallurgie",
      "logistik"
    ],
    "level": 2,
    "time": 1000,
    "neon": 115200,
    "support": 160,
    "need": [
      {
        "size": 1,
        "name": "futurepack:chip_transport"
      },
      {
        "size": 2,
        "tag": "forge:ingots/glowtite"
      },
      {
        "size": 4,
        "name": "futurepack:wire_normal"
      }
    ],
    "icon": {
      "name": "futurepack:chip_support"
    },
    "enables": [
      {
        "name": "futurepack:chip_support"
      }
    ],
	"rewards":
	[
	  {
        "size": 1,
        "name": "futurepack:chip_support"
      }
	]
  },
  {
    "id": "chip.ultimate",
    "page": "chips",
    "x": 2,
    "y": 3,
    "parents": [
      "chip.industrial",
      "quantentechnik"
    ],
    "aspects": [
      "morphologie",
      "energieverbindung",
      "chemie",
      "geologie"
    ],
    "level": 3,
    "time": 4800,
    "neon": 768000,
    "support": 640,
    "expLvl": 1200,
    "need": [
      {
        "size": 1,
        "name": "futurepack:chip_logic"
      },
      {
        "size": 2,
        "tag": "forge:ingots/quantanium"
      },
      {
        "size": 1,
        "tag": "forge:gems/emerald"
      },
      {
        "size": 2,
        "name": "minecraft:glass_bottle"
      }
    ],
    "icon": {
      "name": "futurepack:chip_ultimate"
    },
    "enables": [
      {
        "name": "futurepack:chip_ultimate"
      }
    ],
	"rewards":
	[
	  {
        "size": 1,
        "name": "futurepack:chip_ultimate"
      }
	]
  },
  {
    "id": "chips.combinations",
    "page": "chips",
    "x": 1,
    "y": 5,
    "parents": [
      "chip.ultimate",
      "chip.network",
      "chip.transport"
    ],
    "picon": "COMBO",
    "aspects": [],
    "level": 3,
    "time": 0,
    "neon": 0,
    "support": 0,
    "expLvl": 0,
    "need": [],
    "enables": []
  },
  {
    "id": "ram.standart",
    "page": "chips",
    "x": -3,
    "y": -1,
    "parents": [
      "assembly_chip"
    ],
    "aspects": [],
    "level": 0,
    "time": 0,
    "need": [],
    "icon": {
      "name": "futurepack:ram_standart"
    },
    "enables": [
      {
        "name": "futurepack:ram_standart"
      }
    ]
  },
  {
    "id": "ram.alon",
    "page": "chips",
    "x": -2,
    "y": -1,
    "parents": [
      "ram.standart"
    ],
    "aspects": [
      "metallurgie"
    ],
    "level": 1,
    "time": 800,
    "neon": 100,
    "need": [
      {
        "size": 1,
        "name": "futurepack:ram_standart"
      },
      {
        "size": 2,
        "name": "futurepack:composite_metal"
      }
    ],
    "icon": {
      "name": "futurepack:ram_a"
    },
    "enables": [
      {
        "name": "futurepack:ram_a"
      }
    ],
	"rewards":
	[
	  {
        "size": 1,
        "name": "futurepack:ram_a"
      }
	]
  },
  {
    "id": "ram.penton",
    "page": "chips",
    "x": -1,
    "y": -1,
    "parents": [
      "ram.alon",
      "upgradeT2",
      "aispeicher"
    ],
    "aspects": [
      "maschinenbau"
    ],
    "level": 2,
    "time": 1600,
    "neon": 200,
    "support": 50,
    "need": [
      {
        "size": 1,
        "name": "futurepack:ram_a"
      },
      {
        "size": 4,
        "name": "futurepack:parts_neon"
      },
      {
        "size": 1,
        "name": "futurepack:aiflash1"
      }
    ],
    "icon": {
      "name": "futurepack:ram_p"
    },
    "enables": [
      {
        "name": "futurepack:ram_p"
      }
    ],
	"rewards":
	[
	  {
        "size": 1,
        "name": "futurepack:ram_p"
      }
	]
  },
  {
    "id": "ram.tct",
    "page": "chips",
    "x": 0,
    "y": -1,
    "parents": [
      "ram.penton",
      "surveyscan.menelaus"
    ],
    "aspects": [
      "metallurgie",
      "chemie"
    ],
    "level": 2,
    "time": 1200,
    "neon": 78600,
    "support": 40,
    "need": [
      {
        "size": 1,
        "name": "futurepack:ram_p"
      },
      {
        "size": 4,
        "name": "futurepack:parts_neon"
      },
      {
        "size": 2,
        "tag": "forge:ingots/retium"
      }
    ],
    "icon": {
      "name": "futurepack:ram_tct"
    },
    "enables": [
      {
        "name": "futurepack:ram_tct"
      }
    ],
	"rewards":
	[
	  {
        "size": 1,
        "name": "futurepack:ram_tct"
      }
	]
  },
  {
    "id": "ram.mm",
    "page": "chips",
    "x": 1,
    "y": -1,
    "parents": [
      "ram.tct"
    ],
    "aspects": [
      "metallurgie"
    ],
    "level": 3,
    "time": 2400,
    "neon": 230400,
    "support": 120,
    "expLvl": 300,
    "need": [
      {
        "size": 1,
        "name": "futurepack:ram_tct"
      },
      {
        "size": 4,
        "name": "futurepack:parts_diamond"
      },
      {
        "size": 4,
        "tag": "forge:ingots/glowtite"
      },
      {
        "size": 4,
        "tag": "forge:ingots/quantanium"
      }
    ],
    "icon": {
      "name": "futurepack:ram_master"
    },
    "enables": [
      {
        "name": "futurepack:ram_master"
      }
    ],
	"rewards":
	[
	  {
        "size": 1,
        "name": "futurepack:ram_master"
      }
	]
  },
  {
    "id": "ram.non",
    "page": "chips",
    "x": 3,
    "y": -1,
    "parents": [
      "ram.mm",
      "surveyscan.tyros"
    ],
    "aspects": [
      "biologie"
    ],
    "level": 3,
    "time": 2400,
    "neon": 614400,
    "support": 110,
    "expLvl": 400,
    "need": [
      {
        "size": 1,
        "name": "futurepack:ram_master"
      },
      {
        "size": 4,
        "name": "futurepack:parts_neon"
      },
      {
        "size": 4,
        "tag": "forge:ingots/bioterium"
      },
      {
        "size": 4,
        "tag": "forge:ingots/quantanium"
      }
    ],
    "icon": {
      "name": "futurepack:ram_non"
    },
    "enables": [
      {
        "name": "futurepack:ram_non"
      }
    ],
	"rewards":
	[
	  {
        "size": 1,
        "name": "futurepack:ram_non"
      }
	]
  },
  {
    "id": "ram.entronium",
    "page": "chips",
    "x": 4,
    "y": -1,
    "parents": [
      "ram.non"
    ],
    "aspects": [
      "metallurgie"
    ],
    "level": 1,
    "time": 400,
    "need": [
      {
        "size": 10,
        "name": "minecraft:command_block"
      }
    ],
    "icon": {
      "name": "futurepack:ram_entronium"
    },
    "enables": [
      {
        "name": "futurepack:ram_entronium"
      }
    ],
	"rewards":
	[
	  {
        "size": 1,
        "name": "futurepack:ram_entronium"
      }
	]
  },
  {
    "id": "ram.dungeon",
    "page": "chips",
    "x": 2,
    "y": 0,
    "parents": [
      "ram.mm"
    ],
    "aspects": [
      "morphologie",
      "energieverbindung"
    ],
    "level": 3,
    "time": 2400,
    "neon": 153600,
    "support": 220,
    "expLvl": 500,
    "need": [
      {
        "size": 1,
        "name": "futurepack:ram_master"
      },
      {
        "size": 4,
        "name": "futurepack:parts_neon"
      },
      {
        "size": 4,
        "tag": "forge:ingots/quantanium"
      },
      {
        "size": 4,
        "name": "futurepack:fragment_ram"
      }
    ],
    "icon": {
      "name": "futurepack:ram_dungeon"
    },
    "enables": [
      {
        "name": "futurepack:ram_dungeon"
      }
    ],
	"rewards":
	[
	  {
        "size": 1,
        "name": "futurepack:ram_dungeon"
      }
	]
  },
  {
    "id": "ram.univers",
    "page": "chips",
    "x": 3,
    "y": 0,
    "parents": [
      "ram.dungeon"
    ],
    "aspects": [
      "morphologie",
      "energieverbindung",
      "thermodynamic"
    ],
    "level": 3,
    "time": 4800,
    "neon": 307200,
    "support": 440,
    "expLvl": 1000,
    "need": [
      {
        "size": 1,
        "name": "futurepack:ram_dungeon"
      },
      {
        "size": 4,
        "name": "futurepack:parts_diamond"
      },
      {
        "size": 1,
        "name": "futurepack:ram_dungeon"
      },
      {
        "size": 4,
        "name": "futurepack:fragment_ram"
      }
    ],
    "icon": {
      "name": "futurepack:ram_torus"
    },
    "enables": [
      {
        "name": "futurepack:ram_torus"
      }
    ]
  },
  {
    "id": "core.standart",
    "page": "chips",
    "x": -3,
    "y": -2,
    "parents": [
      "assembly_chip"
    ],
    "aspects": [],
    "level": 0,
    "time": 0,
    "need": [],
    "icon": {
      "name": "futurepack:core_standart"
    },
    "enables": [
      {
        "name": "futurepack:core_standart"
      }
    ]
  },
  {
    "id": "core.alon",
    "page": "chips",
    "x": -2,
    "y": -2,
    "parents": [
      "core.standart"
    ],
    "aspects": [
      "metallurgie"
    ],
    "level": 1,
    "time": 800,
    "neon": 100,
    "need": [
      {
        "size": 1,
        "name": "futurepack:core_standart"
      },
      {
        "size": 2,
        "name": "futurepack:composite_metal"
      }
    ],
    "icon": {
      "name": "futurepack:core_a1"
    },
    "enables": [
      {
        "name": "futurepack:core_a1"
      }
    ],
	"rewards":
	[
	  {
        "size": 1,
        "name": "futurepack:core_a1"
      }
	]
  },
  {
    "id": "core.penton",
    "page": "chips",
    "x": -1,
    "y": -2,
    "parents": [
      "core.alon",
      "upgradeT2",
      "aispeicher"
    ],
    "aspects": [
      "maschinenbau"
    ],
    "level": 2,
    "time": 1600,
    "neon": 200,
    "support": 50,
    "need": [
      {
        "size": 1,
        "name": "futurepack:core_a1"
      },
      {
        "size": 4,
        "name": "futurepack:parts_gold"
      },
      {
        "size": 1,
        "name": "futurepack:aiflash1"
      }
    ],
    "icon": {
      "name": "futurepack:core_p2"
    },
    "enables": [
      {
        "name": "futurepack:core_p2"
      }
    ],
	"rewards":
	[
	  {
        "size": 1,
        "name": "futurepack:core_p2"
      }
	]
  },
  {
    "id": "core.tct",
    "page": "chips",
    "x": 0,
    "y": -2,
    "parents": [
      "core.penton",
      "surveyscan.menelaus"
    ],
    "aspects": [
      "metallurgie",
      "chemie"
    ],
    "level": 2,
    "time": 1200,
    "neon": 78600,
    "support": 40,
    "need": [
      {
        "size": 1,
        "name": "futurepack:core_p2"
      },
      {
        "size": 4,
        "name": "futurepack:parts_neon"
      },
      {
        "size": 2,
        "tag": "forge:ingots/retium"
      }
    ],
    "icon": {
      "name": "futurepack:core_tct"
    },
    "enables": [
      {
        "name": "futurepack:core_tct"
      }
    ],
	"rewards":
	[
	  {
        "size": 1,
        "name": "futurepack:core_tct"
      }
	]
  },
  {
    "id": "core.mm",
    "page": "chips",
    "x": 1,
    "y": -2,
    "parents": [
      "core.tct"
    ],
    "aspects": [
      "metallurgie"
    ],
    "level": 3,
    "time": 2400,
    "neon": 230400,
    "support": 120,
    "expLvl": 300,
    "need": [
      {
        "size": 1,
        "name": "futurepack:core_tct"
      },
      {
        "size": 4,
        "name": "futurepack:parts_diamond"
      },
      {
        "size": 4,
        "tag": "forge:ingots/glowtite"
      },
      {
        "size": 4,
        "tag": "forge:ingots/quantanium"
      }
    ],
    "icon": {
      "name": "futurepack:core_master"
    },
    "enables": [
      {
        "name": "futurepack:core_master"
      }
    ],
	"rewards":
	[
	  {
        "size": 1,
        "name": "futurepack:core_master"
      }
	]
  },
  {
    "id": "core.non",
    "page": "chips",
    "x": 3,
    "y": -2,
    "parents": [
      "core.mm",
      "surveyscan.tyros"
    ],
    "aspects": [
      "biologie"
    ],
    "level": 3,
    "time": 2400,
    "neon": 614400,
    "support": 110,
    "expLvl": 400,
    "need": [
      {
        "size": 1,
        "name": "futurepack:core_master"
      },
      {
        "size": 4,
        "name": "futurepack:parts_diamond"
      },
      {
        "size": 4,
        "tag": "forge:ingots/bioterium"
      },
      {
        "size": 4,
        "tag": "forge:ingots/quantanium"
      }
    ],
    "icon": {
      "name": "futurepack:core_non"
    },
    "enables": [
      {
        "name": "futurepack:core_non"
      }
    ],
	"rewards":
	[
	  {
        "size": 1,
        "name": "futurepack:core_non"
      }
	]
  },
  {
    "id": "core.entronium",
    "page": "chips",
    "x": 4,
    "y": -2,
    "parents": [
      "core.non"
    ],
    "aspects": [
      "metallurgie"
    ],
    "level": 1,
    "time": 400,
    "need": [
      {
        "size": 10,
        "name": "minecraft:command_block"
      }
    ],
    "icon": {
      "name": "futurepack:core_entronium"
    },
    "enables": [
      {
        "name": "futurepack:core_entronium"
      }
    ],
	"rewards":
	[
	  {
        "size": 1,
        "name": "futurepack:core_entronium"
      }
	]
  },
  {
    "id": "core.dungeon",
    "page": "chips",
    "x": 2,
    "y": -3,
    "parents": [
      "core.mm"
    ],
    "aspects": [
      "morphologie",
      "energieverbindung"
    ],
    "level": 3,
    "time": 2400,
    "neon": 153600,
    "support": 220,
    "expLvl": 500,
    "need": [
      {
        "size": 1,
        "name": "futurepack:core_master"
      },
      {
        "size": 4,
        "name": "futurepack:parts_diamond"
      },
      {
        "size": 4,
        "tag": "forge:ingots/quantanium"
      },
      {
        "size": 4,
        "name": "futurepack:fragment_core"
      }
    ],
    "icon": {
      "name": "futurepack:core_dungeon"
    },
    "enables": [
      {
        "name": "futurepack:core_dungeon"
      }
    ],
	"rewards":
	[
	  {
        "size": 1,
        "name": "futurepack:core_dungeon"
      }
	]
  },
  {
    "id": "core.univers",
    "page": "chips",
    "x": 3,
    "y": -3,
    "parents": [
      "core.dungeon"
    ],
    "aspects": [
      "morphologie",
      "energieverbindung",
      "thermodynamic"
    ],
    "level": 3,
    "time": 4800,
    "neon": 307200,
    "support": 440,
    "expLvl": 1000,
    "need": [
      {
        "size": 1,
        "name": "futurepack:core_dungeon"
      },
      {
        "size": 4,
        "name": "futurepack:parts_diamond"
      },
      {
        "size": 1,
        "name": "futurepack:core_dungeon"
      },
      {
        "size": 4,
        "name": "futurepack:fragment_core"
      }
    ],
    "icon": {
      "name": "futurepack:core_torus"
    },
    "enables": [
      {
        "name": "futurepack:core_torus"
      }
    ]
  }
]