{
  "type": "blasting",
  "ingredient": {
    "item": "futurepack:ore_magnetite"
  },
  "result": { "item": "minecraft:iron_ingot", "count": 4},
  "experience": 0.7,
  "cookingtime": 100,
  "_comment": "This crashes in 1.13 but in 1.14 it works"
}