{
	"credit": "Made with Blockbench",
	"texture_size": [128, 128],
	"textures": {
		"1": "pipe_modul/pipe_redstone_on",
		"2": "Z:/pipe_logic_on",
		"3": "pipe_modul/tire_core",
		"particle": "Z:/pipe_logic_on"
	},
	"elements": [
		{
			"name": "pipe_core",
			"from": [4, 4, 4],
			"to": [12, 12, 12],
			"faces": {
				"north": {"uv": [0, 0, 8, 8], "texture": "#1"},
				"east": {"uv": [0, 0, 8, 8], "texture": "#1"},
				"south": {"uv": [0, 0, 8, 8], "texture": "#1"},
				"west": {"uv": [0, 0, 8, 8], "texture": "#1"},
				"up": {"uv": [0, 0, 8, 8], "texture": "#1"},
				"down": {"uv": [0, 0, 8, 8], "texture": "#1"}
			}
		},
		{
			"name": "case1",
			"from": [12, 4, 4],
			"to": [14, 12, 12],
			"rotation": {"angle": 0, "axis": "y", "origin": [13, 13, 4]},
			"faces": {
				"north": {"uv": [4, 0, 5, 4], "rotation": 180, "texture": "#2"},
				"east": {"uv": [5, 0, 9, 4], "texture": "#2"},
				"south": {"uv": [4, 0, 5, 4], "texture": "#2"},
				"west": {"uv": [5, 0, 9, 4], "texture": "#2"},
				"up": {"uv": [0, 4, 4, 5], "rotation": 90, "texture": "#2"},
				"down": {"uv": [0, 4, 4, 5], "rotation": 90, "texture": "#2"}
			}
		},
		{
			"name": "case2",
			"from": [4, 12, 4],
			"to": [12, 14, 12],
			"rotation": {"angle": 0, "axis": "y", "origin": [13, 13, 4]},
			"faces": {
				"north": {"uv": [4, 0, 5, 4], "rotation": 270, "texture": "#2"},
				"east": {"uv": [5, 0, 4, 4], "rotation": 90, "texture": "#2"},
				"south": {"uv": [4, 0, 5, 4], "rotation": 270, "texture": "#2"},
				"west": {"uv": [5, 0, 4, 4], "rotation": 90, "texture": "#2"},
				"up": {"uv": [0, 5, 4, 9], "rotation": 90, "texture": "#2"},
				"down": {"uv": [5, 0, 9, 4], "rotation": 90, "texture": "#2"}
			}
		},
		{
			"name": "case3",
			"from": [4, 2, 4],
			"to": [12, 4, 12],
			"rotation": {"angle": 0, "axis": "y", "origin": [13, 13, 4]},
			"faces": {
				"north": {"uv": [4, 0, 5, 4], "rotation": 90, "texture": "#2"},
				"east": {"uv": [0, 4, 4, 5], "texture": "#2"},
				"south": {"uv": [4, 0, 5, 4], "rotation": 90, "texture": "#2"},
				"west": {"uv": [0, 4, 4, 5], "texture": "#2"},
				"up": {"uv": [5, 0, 9, 4], "rotation": 90, "texture": "#2"},
				"down": {"uv": [5, 0, 9, 4], "rotation": 90, "texture": "#2"}
			}
		},
		{
			"name": "case4",
			"from": [2, 4, 4],
			"to": [4, 12, 12],
			"rotation": {"angle": 0, "axis": "y", "origin": [13, 13, 4]},
			"faces": {
				"north": {"uv": [4, 0, 5, 4], "texture": "#2"},
				"east": {"uv": [5, 0, 9, 4], "texture": "#2"},
				"south": {"uv": [4, 0, 5, 4], "rotation": 180, "texture": "#2"},
				"west": {"uv": [0, 0, 4, 4], "texture": "#2"},
				"up": {"uv": [0, 4, 4, 5], "rotation": 90, "texture": "#2"},
				"down": {"uv": [0, 4, 4, 5], "rotation": 90, "texture": "#2"}
			}
		},
		{
			"name": "case_corner1",
			"from": [3, 3, 4],
			"to": [4, 4, 12],
			"faces": {
				"north": {"uv": [4, 3.5, 4.5, 4], "texture": "#2"},
				"east": {"uv": [0, 0, 1, 0.125], "texture": "#2"},
				"south": {"uv": [4, 0, 4.5, 0.5], "texture": "#2"},
				"west": {"uv": [0, 4, 4, 4.5], "texture": "#2"},
				"up": {"uv": [0, 0, 0.125, 1], "texture": "#2"},
				"down": {"uv": [0, 4.5, 4, 5], "rotation": 90, "texture": "#2"}
			}
		},
		{
			"name": "case_corner2",
			"from": [12, 3, 4],
			"to": [13, 4, 12],
			"faces": {
				"north": {"uv": [4, 0, 4.5, 0.5], "texture": "#2"},
				"east": {"uv": [0, 4, 4, 4.5], "texture": "#2"},
				"south": {"uv": [4, 0, 4.5, 0.5], "texture": "#2"},
				"west": {"uv": [0, 0, 1, 0.125], "texture": "#2"},
				"up": {"uv": [0, 0, 0.125, 1], "texture": "#2"},
				"down": {"uv": [0, 4.5, 4, 5], "rotation": 90, "texture": "#2"}
			}
		},
		{
			"name": "case_corner3",
			"from": [12, 12, 4],
			"to": [13, 13, 12],
			"faces": {
				"north": {"uv": [4, 3.5, 4.5, 4], "texture": "#2"},
				"east": {"uv": [0, 4, 4, 4.5], "texture": "#2"},
				"south": {"uv": [4, 0, 4.5, 0.5], "texture": "#2"},
				"west": {"uv": [0, 0, 1, 0.125], "texture": "#2"},
				"up": {"uv": [0, 4.5, 4, 5], "rotation": 90, "texture": "#2"},
				"down": {"uv": [0, 0, 0.125, 1], "texture": "#2"}
			}
		},
		{
			"name": "case_corner4",
			"from": [3, 12, 4],
			"to": [4, 13, 12],
			"faces": {
				"north": {"uv": [4, 0, 4.5, 0.5], "texture": "#2"},
				"east": {"uv": [0, 0, 1, 0.125], "texture": "#2"},
				"south": {"uv": [4, 3.5, 4.5, 4], "texture": "#2"},
				"west": {"uv": [0, 4, 4, 4.5], "texture": "#2"},
				"up": {"uv": [0, 4, 4, 4.5], "rotation": 90, "texture": "#2"},
				"down": {"uv": [0, 0, 0.125, 1], "texture": "#2"}
			}
		},
		{
			"name": "logic_platte",
			"from": [5, 13.5, 5],
			"to": [11, 14.5, 11],
			"faces": {
				"north": {"uv": [0, 0, 16, 1], "texture": "#3"},
				"east": {"uv": [0, 0, 16, 1], "rotation": 180, "texture": "#3"},
				"south": {"uv": [0, 15, 16, 16], "texture": "#3"},
				"west": {"uv": [0, 15, 16, 16], "texture": "#3"},
				"up": {"uv": [0, 0, 16, 16], "rotation": 90, "texture": "#3"},
				"down": {"uv": [0, 0, 0.75, 0.75], "texture": "#3"}
			}
		},
		{
			"name": "conect7",
			"from": [2.9, 11.9, 5.9],
			"to": [5.1, 14.1, 7.1],
			"faces": {
				"north": {"uv": [0, 6, 2, 8], "texture": "#1"},
				"east": {"uv": [0, 0, 0.125, 0.25], "texture": "#1"},
				"south": {"uv": [6, 6, 8, 8], "texture": "#1"},
				"west": {"uv": [2, 10, 4, 11], "rotation": 90, "texture": "#1"},
				"up": {"uv": [1, 10, 3, 11], "texture": "#1"},
				"down": {"uv": [0, 0, 0.125, 0.25], "rotation": 90, "texture": "#1"}
			}
		},
		{
			"name": "conect8",
			"from": [2.9, 11.9, 8.9],
			"to": [5.1, 14.1, 10.1],
			"faces": {
				"north": {"uv": [0, 6, 2, 8], "texture": "#1"},
				"east": {"uv": [0, 0, 0.125, 0.25], "texture": "#1"},
				"south": {"uv": [6, 6, 8, 8], "texture": "#1"},
				"west": {"uv": [2, 10, 4, 11], "rotation": 90, "texture": "#1"},
				"up": {"uv": [1, 10, 3, 11], "texture": "#1"},
				"down": {"uv": [0, 0, 0.125, 0.25], "rotation": 90, "texture": "#1"}
			}
		},
		{
			"name": "antenne",
			"from": [2.5, 12, 4.5],
			"to": [3.5, 16, 5.5],
			"faces": {
				"north": {"uv": [4, 4, 5, 7], "texture": "#2"},
				"east": {"uv": [4, 4, 5, 6.75], "texture": "#2"},
				"south": {"uv": [4, 4, 5, 7], "texture": "#2"},
				"west": {"uv": [4, 4, 5, 7], "texture": "#2"},
				"up": {"uv": [4, 4, 4.5, 4.5], "texture": "#2"},
				"down": {"uv": [0, 0, 0.125, 0.125], "texture": "#2"}
			}
		},
		{
			"name": "scheinKr1",
			"from": [2, 14.65, 5],
			"to": [4, 16.65, 5.001],
			"faces": {
				"north": {"uv": [0, 9, 3, 12], "texture": "#2"},
				"east": {"uv": [0, 0, 0.00012, 0.25], "texture": "#missing"},
				"south": {"uv": [0, 9, 3, 12], "texture": "#2"},
				"west": {"uv": [0, 0, 0.00012, 0.25], "texture": "#missing"},
				"up": {"uv": [0, 0, 0.25, 0.00012], "texture": "#missing"},
				"down": {"uv": [0, 0, 0.25, 0.00012], "texture": "#missing"}
			}
		},
		{
			"name": "scheinKr2",
			"from": [3, 14.65, 4],
			"to": [3.001, 16.65, 6],
			"faces": {
				"north": {"uv": [0, 0, 0.00012, 0.25], "texture": "#missing"},
				"east": {"uv": [0, 9, 3, 12], "texture": "#2"},
				"south": {"uv": [0, 0, 0.00012, 0.25], "texture": "#missing"},
				"west": {"uv": [0, 9, 3, 12], "texture": "#2"},
				"up": {"uv": [0, 0, 0.25, 0.00012], "rotation": 270, "texture": "#missing"},
				"down": {"uv": [0, 0, 0.25, 0.00012], "rotation": 90, "texture": "#missing"}
			}
		},
		{
			"name": "wCon",
			"from": [14, 6, 6],
			"to": [16, 10, 10],
			"faces": {
				"north": {"uv": [8, 8, 10, 12], "rotation": 180, "texture": "#1"},
				"east": {"uv": [10, 2, 14, 6], "texture": "#1"},
				"south": {"uv": [8, 12, 10, 8], "texture": "#1"},
				"west": {"uv": [0, 0, 0.5, 0.5], "texture": "#1"},
				"up": {"uv": [8, 8, 10, 12], "texture": "#1"},
				"down": {"uv": [8, 12, 10, 8], "texture": "#1"}
			}
		},
		{
			"name": "conect5",
			"from": [10.9, 11.9, 8.9],
			"to": [13.1, 14.1, 10.1],
			"faces": {
				"north": {"uv": [6, 6, 8, 8], "texture": "#1"},
				"east": {"uv": [2, 10, 4, 11], "rotation": 90, "texture": "#1"},
				"south": {"uv": [0, 6, 2, 8], "texture": "#1"},
				"west": {"uv": [0, 0, 0.125, 0.25], "texture": "#1"},
				"up": {"uv": [1, 10, 3, 11], "rotation": 180, "texture": "#1"},
				"down": {"uv": [0, 0, 0.125, 0.25], "rotation": 270, "texture": "#1"}
			}
		},
		{
			"name": "conect6",
			"from": [10.9, 11.9, 5.9],
			"to": [13.1, 14.1, 7.1],
			"faces": {
				"north": {"uv": [6, 6, 8, 8], "texture": "#1"},
				"east": {"uv": [2, 10, 4, 11], "rotation": 90, "texture": "#1"},
				"south": {"uv": [0, 6, 2, 8], "texture": "#1"},
				"west": {"uv": [0, 0, 0.125, 0.25], "texture": "#1"},
				"up": {"uv": [1, 10, 3, 11], "rotation": 180, "texture": "#1"},
				"down": {"uv": [0, 0, 0.125, 0.25], "rotation": 270, "texture": "#1"}
			}
		},
		{
			"name": "case_corner2_wCon",
			"from": [11.999, 11.999, 3.999],
			"to": [13.001, 13.001, 12.001],
			"faces": {
				"north": {"uv": [4, 3.5, 4.5, 4], "texture": "#2"},
				"east": {"uv": [5, 4, 9, 4.5], "texture": "#2"},
				"south": {"uv": [4, 0, 4.5, 0.5], "texture": "#2"},
				"west": {"uv": [0, 0, 1, 0.125], "texture": "#2"},
				"up": {"uv": [5, 4.5, 9, 5], "rotation": 90, "texture": "#2"},
				"down": {"uv": [0, 0, 0.125, 1], "texture": "#2"}
			}
		},
		{
			"name": "case_corner3_wCon",
			"from": [11.999, 2.999, 3.999],
			"to": [13.011, 4.011, 12.011],
			"faces": {
				"north": {"uv": [4, 0, 4.5, 0.5], "texture": "#2"},
				"east": {"uv": [4, 0, 4.5, 4], "rotation": 90, "texture": "#2"},
				"south": {"uv": [4, 0, 4.5, 0.5], "texture": "#2"},
				"west": {"uv": [0, 0, 1, 0.125], "texture": "#2"},
				"up": {"uv": [0, 0, 0.125, 1], "texture": "#2"},
				"down": {"uv": [4, 0, 4.5, 4], "texture": "#2"}
			}
		},
		{
			"name": "case1_wCon",
			"from": [11.999, 3.999, 3.999],
			"to": [14.001, 12.001, 12.001],
			"rotation": {"angle": 0, "axis": "y", "origin": [13, 13, 4]},
			"faces": {
				"north": {"uv": [4, 0, 5, 4], "rotation": 180, "texture": "#2"},
				"east": {"uv": [5, 5, 9, 9], "texture": "#2"},
				"south": {"uv": [4, 0, 5, 4], "texture": "#2"},
				"west": {"uv": [5, 0, 9, 4], "texture": "#2"},
				"up": {"uv": [5, 4, 9, 5], "rotation": 90, "texture": "#2"},
				"down": {"uv": [5, 4, 9, 5], "rotation": 90, "texture": "#2"}
			}
		},
		{
			"name": "pipe1",
			"from": [4, 4, 0],
			"to": [12, 12, 4],
			"faces": {
				"north": {"uv": [0, 0, 8, 8], "texture": "#1"},
				"east": {"uv": [0, 8, 4, 16], "rotation": 180, "texture": "#1"},
				"south": {"uv": [0, 0, 8, 8], "texture": "#1"},
				"west": {"uv": [0, 8, 4, 16], "texture": "#1"},
				"up": {"uv": [0, 8, 4, 16], "rotation": 90, "texture": "#1"},
				"down": {"uv": [0, 8, 4, 16], "rotation": 270, "texture": "#1"}
			}
		},
		{
			"name": "conect1",
			"from": [5.9, 11.9, 3.9],
			"to": [7.1, 14.1, 6.1],
			"faces": {
				"north": {"uv": [2, 10, 4, 11], "rotation": 90, "texture": "#1"},
				"east": {"uv": [0, 6, 2, 8], "texture": "#1"},
				"south": {"uv": [0, 0, 0.125, 0.25], "texture": "#1"},
				"west": {"uv": [6, 6, 8, 8], "texture": "#1"},
				"up": {"uv": [1, 10, 3, 11], "rotation": 90, "texture": "#1"},
				"down": {"uv": [0, 0, 0.125, 0.25], "texture": "#1"}
			}
		},
		{
			"name": "conect3",
			"from": [8.9, 11.9, 3.9],
			"to": [10.1, 14.1, 6.1],
			"faces": {
				"north": {"uv": [2, 10, 4, 11], "rotation": 90, "texture": "#1"},
				"east": {"uv": [0, 6, 2, 8], "texture": "#1"},
				"south": {"uv": [0, 0, 0.125, 0.25], "texture": "#1"},
				"west": {"uv": [6, 6, 8, 8], "texture": "#1"},
				"up": {"uv": [1, 10, 3, 11], "rotation": 90, "texture": "#1"},
				"down": {"uv": [0, 0, 0.125, 0.25], "texture": "#1"}
			}
		},
		{
			"name": "pipe2",
			"from": [4, 4, 12],
			"to": [12, 12, 16],
			"faces": {
				"north": {"uv": [0, 0, 8, 8], "texture": "#1"},
				"east": {"uv": [0, 8, 4, 16], "texture": "#1"},
				"south": {"uv": [0, 0, 8, 8], "texture": "#1"},
				"west": {"uv": [0, 8, 4, 16], "rotation": 180, "texture": "#1"},
				"up": {"uv": [0, 8, 4, 16], "rotation": 270, "texture": "#1"},
				"down": {"uv": [0, 8, 4, 16], "rotation": 90, "texture": "#1"}
			}
		},
		{
			"name": "conect2",
			"from": [8.9, 11.9, 9.9],
			"to": [10.1, 14.1, 12.1],
			"faces": {
				"north": {"uv": [0, 0, 0.125, 0.25], "texture": "#1"},
				"east": {"uv": [6, 6, 8, 8], "texture": "#1"},
				"south": {"uv": [2, 10, 4, 11], "rotation": 90, "texture": "#1"},
				"west": {"uv": [0, 6, 2, 8], "texture": "#1"},
				"up": {"uv": [1, 10, 3, 11], "rotation": 270, "texture": "#1"},
				"down": {"uv": [0, 0, 0.125, 0.25], "rotation": 180, "texture": "#1"}
			}
		},
		{
			"name": "conect4",
			"from": [5.9, 11.9, 9.9],
			"to": [7.1, 14.1, 12.1],
			"faces": {
				"north": {"uv": [0, 0, 0.125, 0.25], "texture": "#1"},
				"east": {"uv": [6, 6, 8, 8], "texture": "#1"},
				"south": {"uv": [2, 10, 4, 11], "rotation": 90, "texture": "#1"},
				"west": {"uv": [0, 6, 2, 8], "texture": "#1"},
				"up": {"uv": [1, 10, 3, 11], "rotation": 270, "texture": "#1"},
				"down": {"uv": [0, 0, 0.125, 0.25], "rotation": 180, "texture": "#1"}
			}
		}
	],
	"groups": [
		{
			"name": "Base",
			"origin": [8, 8, 8],
			"children": [0,
				{
					"name": "logicPart",
					"origin": [8, 8, 8],
					"children": [1, 2, 3, 4, 5, 6, 7, 8,
						{
							"name": "Cipbase",
							"origin": [8, 8, 8],
							"children": [9,
								{
									"name": "pl_red_con",
									"origin": [8, 8, 8],
									"children": [10, 11, 12,
										{
											"name": "Schein",
											"origin": [8, 8, 8],
											"children": [13, 14]
										}
									]
								},
								{
									"name": "cable_con",
									"origin": [8, 8, 8],
									"children": [15, 16, 17, 18, 19, 20]
								},
								{
									"name": "pi_con1",
									"origin": [8, 8, 8],
									"children": [21, 22, 23]
								},
								{
									"name": "pi_con2",
									"origin": [8, 8, 8],
									"children": [24, 25, 26]
								}
							]
						}
					]
				}
			]
		}
	]
}