{
    "coolDown":300,
    "entrys":
	[
		{ "id":"minecraft:stray", "count":1, "data":"{LeftHanded:1,Attributes:[{Name:\"generic.knockbackResistance\",Base:0.33f},{Name:\"generic.attackDamage\",Base:11}],HandItems:[{id:\"futurepack:sword_retium\",Count:1},{}],HandDropChances:[0.1F,0F]}" },
		{ "id":"minecraft:stray", "count":1, "data":"{LeftHanded:0,Attributes:[{Name:\"generic.knockbackResistance\",Base:0.33f},{Name:\"generic.attackDamage\",Base:11}],HandItems:[{id:\"futurepack:sword_retium\",Count:1},{}],HandDropChances:[0.1F,0F]}" },
		{ "id":"minecraft:stray", "count":2, "data":"{HandItems:[{id:\"minecraft:bow\",Count:1},{}]}" }
    ],
    "message":{"translate":"dungeon.message.much_damage","text":"To much damage!"}
}