{
  "parent": "block/stairs",
  "textures": {
    "bottom": "futurepack:blocks/deko/gitter_pink",
    "top": "futurepack:blocks/deko/gitter_pink",
    "side": "futurepack:blocks/deko/gitter_pink"
  }
}