{
  "parent": "block/outer_stairs",
  "textures": {
    "bottom": "futurepack:blocks/deko/color_iron_red",
    "top": "futurepack:blocks/deko/color_iron_red",
    "side": "futurepack:blocks/deko/color_iron_red"
  }
}