{
  "parent": "block/stairs",
  "textures": {
    "bottom": "futurepack:blocks/deko/gitter_lime",
    "top": "futurepack:blocks/deko/gitter_lime",
    "side": "futurepack:blocks/deko/gitter_lime"
  }
}