{
  "parent": "block/slab_top",
  "textures": {
    "bottom": "futurepack:blocks/deko/luftung_magenta",
    "top": "futurepack:blocks/deko/luftung_magenta",
    "side": "futurepack:blocks/deko/luftung_magenta"
  }
}