{
  "parent": "block/inner_stairs",
  "textures": {
    "bottom": "futurepack:blocks/deko/gitter_magenta",
    "top": "futurepack:blocks/deko/gitter_magenta",
    "side": "futurepack:blocks/deko/gitter_magenta"
  }
}