{
  "parent": "block/slab_top",
  "textures": {
    "bottom": "futurepack:blocks/deko/luftung_pink",
    "top": "futurepack:blocks/deko/luftung_pink",
    "side": "futurepack:blocks/deko/luftung_pink"
  }
}