{
  "parent": "block/slab_top",
  "textures": {
    "bottom": "futurepack:blocks/deko/luftung_purple",
    "top": "futurepack:blocks/deko/luftung_purple",
    "side": "futurepack:blocks/deko/luftung_purple"
  }
}