{
  "parent": "block/slab_top",
  "textures": {
    "bottom": "futurepack:blocks/deko/color_iron_lime",
    "top": "futurepack:blocks/deko/color_iron_lime",
    "side": "futurepack:blocks/deko/color_iron_lime"
  }
}