{
	"parent": "block/block",
    "ambientocclusion": false,
    "textures": {
        "side": "futurepack:blocks/deko/color_iron_black",
        "side_bottom": "futurepack:blocks/deko/color_iron_purple",
        "top": "futurepack:blocks/misc/checkpoint",
        "particle": "futurepack:blocks/deko/color_iron_black"
    },
    "elements": [
        {
            "from": [1,0,1],
            "to": [15,4,15],
            "faces": {
                "down": {
                    "texture": "#side_bottom",
                    "cullface": "down"
                },
                "north": {
                    "texture": "#side_bottom"
                },
                "east": {
                    "texture": "#side_bottom"
                },
                "south": {
                    "texture": "#side_bottom"
                },
                "west": {
                    "texture": "#side_bottom"
                }
            }
        },
        {
            "from": [0,4,0],
            "to": [16,7,16],
            "faces": {
            	"up": {
                    "texture": "#top"
                },
                "down": {
                    "texture": "#side"
                },
                "north": {
                    "texture": "#side"
                },
                "east": {
                    "texture": "#side"
                },
                "south": {
                    "texture": "#side"
                },
                "west": {
                    "texture": "#side"
                }
            }
        }
    ]
}