{
    "parent": "block/block",
	"textures": {
        "particle": "futurepack:blocks/terrain/glowmelo_3",
		"side": "futurepack:blocks/terrain/glowmelo_3",
		"top": "futurepack:blocks/terrain/glowmelo_top_3"
    },
	"elements": [
        {   "from": [ 4, 6, 4 ],
            "to": [ 12, 16, 12 ],
            "faces": {
                "down":  { "texture": "#top"},
                "up":    { "texture": "#top"},
                "north": { "texture": "#side"},
                "south": { "texture": "#side"},
                "west":  { "texture": "#side"},
                "east":  { "texture": "#side"}
            }
        }
    ]
}
