{
	"parent": "block/cube",
	"textures": {
		"particle":"futurepack:blocks/machines/neon_furnace_vorn_w_off",
		"down":"futurepack:blocks/deko/color_iron_white",
		"up":"futurepack:blocks/machines/wasserturbine_top_w",
		"north":"futurepack:blocks/machines/neon_furnace_vorn_w_off",
		"east":"futurepack:blocks/machines/neon_furnace_seite_w",
		"south":"futurepack:blocks/machines/neon_furnace_seite_w",
		"west":"futurepack:blocks/machines/neon_furnace_seite_w"
	}
}