{
    "parent": "block/block",
	"textures": {
		"texture0": "futurepack:blocks/misc/fp_lever0",
		"texture1": "futurepack:blocks/misc/fp_lever1",
		"texture2": "futurepack:blocks/misc/fp_lever2",
		"particle": "futurepack:blocks/misc/fp_lever0"
	},
	"elements": [
		{
			"from": [ 1.0, 0.0, 1.0 ],
			"to": [ 15.0, 2.0, 15.0 ],
			"faces": {
				"down":	{ "uv": [ 0, 0, 14, 14  ], "texture": "#texture1"},
				"up":	{ "uv": [ 0, 2, 14, 16  ], "texture": "#texture0"},
				"north":{ "uv": [ 0, 0, 14, 2  ], "texture": "#texture0"},
				"south":{ "uv": [ 0, 0, 14, 2  ], "texture": "#texture0"},
				"west":	{ "uv": [ 0, 0, 14, 2  ], "texture": "#texture0"},
				"east":	{ "uv": [ 0, 0, 14, 2  ], "texture": "#texture0"}
			}
		},
		{
			"from": [ 11.0, 1.0, 7.0 ],
			"to": [ 13.0, 8.0, 9.0 ],
			"rotation": { "origin": [ 12, 2, 8 ], "axis": "x", "angle": -45, "rescale": false },
			"faces": {
				"down":	{ "uv": [ 0, 14, 2, 16  ], "texture": "#texture1"},
				"up":	{ "uv": [ 14, 14, 16, 16  ], "texture": "#texture0"},
				"north":{ "uv": [ 14, 7, 16, 14  ], "texture": "#texture0"},
				"south":{ "uv": [ 14, 0, 16, 7  ], "texture": "#texture0"},
				"west":	{ "uv": [ 14, 7, 16, 14  ], "texture": "#texture1"},
				"east":	{ "uv": [ 14, 0, 16, 7  ], "texture": "#texture1"}
			}
		},
		{
			"from": [ 3.0, 1.0, 7.0 ],
			"to": [ 5.0, 8.0, 9.0 ],
			"rotation": { "origin": [ 4, 2, 8 ], "axis": "x", "angle": -45, "rescale": false },
			"faces": {
				"down":	{ "uv": [ 0, 14, 2, 16  ], "texture": "#texture1"},
				"up":	{ "uv": [ 14, 14, 16, 16  ], "texture": "#texture0"},
				"north":{ "uv": [ 14, 7, 16, 14  ], "texture": "#texture0"},
				"south":{ "uv": [ 14, 0, 16, 7  ], "texture": "#texture0"},
				"west":	{ "uv": [ 14, 7, 16, 14  ], "texture": "#texture1"},
				"east":	{ "uv": [ 14, 0, 16, 7  ], "texture": "#texture1"}
			}
		},
		{
			"from": [ 2.0, 7.0, 6.5 ],
			"to": [ 14.0, 10.0, 9.5 ],
			"rotation": { "origin": [ 6, 2, 8 ], "axis": "x", "angle": -45, "rescale": false },
			"faces": {
				"down":	{ "uv": [ 0, 0, 12, 3  ], "texture": "#texture2"},
				"up":	{ "uv": [ 0, 0, 12, 3  ], "texture": "#texture2"},
				"north":{ "uv": [ 0, 0, 12, 3  ], "texture": "#texture2"},
				"south":{ "uv": [ 0, 0, 12, 3  ], "texture": "#texture2"},
				"west":	{ "uv": [ 0, 3, 3, 6  ], "texture": "#texture2"},
				"east":	{ "uv": [ 0, 3, 3, 6  ], "texture": "#texture2"}
			}
		}
	]
}