{
	"parent": "block/cube",
	"textures": {
	"particle":"futurepack:blocks/machines/opti_bench_front_1",
	"down":"futurepack:blocks/deko/color_iron_light_gray",
	"up":"futurepack:blocks/machines/opti_bench_top_1",
	"north":"futurepack:blocks/machines/opti_bench_front_1",
	"east":"futurepack:blocks/machines/opti_bench_side_1",
	"south":"futurepack:blocks/machines/opti_bench_side_1",
	"west":"futurepack:blocks/machines/opti_bench_side_1"
	}
}
