{
	"parent": "block/cube",
	"textures": {
	"particle":"futurepack:blocks/machines/opti_bench_front_0",
	"down":"futurepack:blocks/deko/color_iron_white",
	"up":"futurepack:blocks/machines/opti_sempler_top_0",
	"north":"futurepack:blocks/machines/opti_sempler_vorne_0",
    "east":"futurepack:blocks/machines/assembler_links_1",
    "south":"futurepack:blocks/machines/opti_bench_side_0",
    "west":"futurepack:blocks/machines/assembler_rechts_1"
	}
}
