{
    "parent": "block/block",
	"textures": {
        "particle": "#all"
    },
	"elements": [
        {   "from": [ 4, 4, 3 ],
			"to": [ 12, 12, 4 ],
            "faces": {
                "down":  { "uv": [ 8, 0, 9, 8  ], "texture": "#all", "rotation": 270},
                "up":    { "uv": [ 8, 0, 9, 8  ], "texture": "#all", "rotation": 90},
                "north": { "uv": [ 8, 0, 16,8  ], "texture": "#all"},
                "south": { "uv": [ 8, 0, 16,8  ], "texture": "#all"},
                "west":  { "uv": [ 8, 0, 9, 8  ], "texture": "#all", "rotation": 180},
                "east":  { "uv": [ 8, 0, 9, 8  ], "texture": "#all"}
            }
        },
        {   "from": [ 6, 6, 0 ],
			"to": [ 10, 10, 3 ],
            "faces": {
                "down":  { "uv": [ 7, 8, 10, 12 ], "texture": "#all", "rotation": 90},
                "up":    { "uv": [ 7, 8, 10, 12 ], "texture": "#all", "rotation": 270},
                "north": { "uv": [ 10,2, 14, 6  ], "texture": "#all"},
                "south": { "uv": [ 10,2, 14, 6  ], "texture": "#all"},
                "west":  { "uv": [ 7, 8, 10, 12 ], "texture": "#all", "rotation": 180},
                "east":  { "uv": [ 7, 8, 10, 12 ], "texture": "#all"}
            }
        }
    ]
}
