{
    "parent": "block/block",
	"textures": {
		"texture0": "futurepack:blocks/inventory/pumpe_ne0",
		"texture1": "futurepack:blocks/inventory/pumpe_ne1",
		"texture2": "futurepack:blocks/inventory/pumpe_ne2",
		"texture3": "futurepack:blocks/inventory/pumpe_ne3",
		"texture4": "futurepack:blocks/inventory/pumpe_ne4",
		"texture5": "futurepack:blocks/inventory/pumpe_ne5",
		"texture6": "futurepack:blocks/inventory/pumpe_ne6",
		"texture7": "futurepack:blocks/inventory/pumpe_ne7",
		"texture8": "futurepack:blocks/inventory/pumpe_ne8",
		"transparent": "futurepack:blocks/transparent",
		"particle": "futurepack:blocks/inventory/pumpe_ne0"
	},
	"elements": [
		{
			"from": [ 6.0, 6.0, 0.0 ],
			"to": [ 10.0, 10.0, 2.0 ],
			"faces": {
				"down":	{ "uv": [ 0, 4, 1, 8  ], "texture": "#texture0", "rotation": 270},
				"up":	{ "uv": [ 0, 0, 1, 4  ], "texture": "#texture0", "rotation": 90},
				"north":{ "uv": [ 0, 8, 4, 12  ], "texture": "#texture0"},
				"west":	{ "uv": [ 0, 4, 1, 8  ], "texture": "#texture0"},
				"east":	{ "uv": [ 0, 0, 1, 4  ], "texture": "#texture0"}
			}
		},
		{
			"from": [ 6.0, 6.0, 14.0 ],
			"to": [ 10.0, 10.0, 16.0 ],
			"faces": {
				"down":	{ "uv": [ 1, 0, 2, 4  ], "texture": "#texture0", "rotation": 270},
				"up":	{ "uv": [ 0, 12, 1, 16  ], "texture": "#texture0", "rotation": 90},
				"south":{ "uv": [ 1, 4, 5, 8  ], "texture": "#texture0"},
				"west":	{ "uv": [ 1, 0, 2, 4  ], "texture": "#texture0"},
				"east":	{ "uv": [ 0, 12, 1, 16  ], "texture": "#texture0"}
			}
		},
		{
			"from": [ 5.0, 2.0, 4.0 ],
			"to": [ 15.0, 3.0, 12.0 ],
			"faces": {
				"down":	{ "uv": [ 5, 4, 15, 12  ], "texture": "#texture0"},
				"north":{ "uv": [ 0, 0, 1, 10  ], "texture": "#texture1", "rotation": 90},
				"south":{ "uv": [ 15, 4, 16, 14  ], "texture": "#texture0", "rotation": 90},
				"east":	{ "uv": [ 4, 8, 5, 16  ], "texture": "#texture0", "rotation": 270}
			}
		},
		{
			"from": [ 5.0, 4.0, 2.0 ],
			"to": [ 15.0, 12.0, 3.0 ],
			"faces": {
				"down":	{ "uv": [ 15, 4, 16, 14  ], "texture": "#texture0", "rotation": 90},
				"up":	{ "uv": [ 0, 0, 1, 10  ], "texture": "#texture1", "rotation": 270},
				"north":{ "uv": [ 5, 4, 15, 12  ], "texture": "#texture0", "rotation": 180},
				"east":	{ "uv": [ 4, 8, 5, 16  ], "texture": "#texture0", "rotation": 180}
			}
		},
		{
			"from": [ 5.0, 13.0, 4.0 ],
			"to": [ 15.0, 14.0, 12.0 ],
			"faces": {
				"up":	{ "uv": [ 5, 4, 15, 12  ], "texture": "#texture0"},
				"north":{ "uv": [ 15, 4, 16, 14  ], "texture": "#texture0", "rotation": 270},
				"south":{ "uv": [ 0, 0, 1, 10  ], "texture": "#texture1", "rotation": 270},
				"east":	{ "uv": [ 4, 8, 5, 16  ], "texture": "#texture0", "rotation": 90}
			}
		},
		{
			"from": [ 5.0, 4.0, 13.0 ],
			"to": [ 15.0, 12.0, 14.0 ],
			"faces": {
				"down":	{ "uv": [ 0, 0, 1, 10  ], "texture": "#texture1", "rotation": 270},
				"up":	{ "uv": [ 15, 4, 16, 14  ], "texture": "#texture0", "rotation": 90},
				"south":{ "uv": [ 5, 4, 15, 12  ], "texture": "#texture0"},
				"east":	{ "uv": [ 4, 8, 5, 16  ], "texture": "#texture0"}
			}
		},
		{
			"from": [ 5.0, 3.0, 3.0 ],
			"to": [ 16.0, 13.0, 13.0 ],
			"faces": {
				"down":	{ "uv": [ 0, 0, 10, 11  ], "texture": "#texture5", "rotation": 270},
				"up":	{ "uv": [ 0, 0, 10, 11  ], "texture": "#texture4", "rotation": 90},
				"north":{ "uv": [ 0, 0, 11, 10  ], "texture": "#texture3"},
				"south":{ "uv": [ 0, 0, 11, 10  ], "texture": "#texture2"},
				"east":	{ "uv": [ 1, 0, 11, 10  ], "texture": "#texture1"}
			}
		},
		{
			"from": [ 0.0, 0.0, 1.0 ],
			"to": [ 5.0, 16.0, 10.0 ],
			"faces": {
				"down":	{ "uv": [ 0, 10, 9, 15  ], "texture": "#texture2", "rotation": 270},
				"up":	{ "uv": [ 0, 10, 9, 15  ], "texture": "#texture1", "rotation": 90},
				"north":{ "uv": [ 11, 0, 16, 16  ], "texture": "#texture2"},
				"south":{ "uv": [ 11, 0, 16, 16  ], "texture": "#texture1"},
				"west":	{ "uv": [ 0, 0, 9, 16  ], "texture": "#texture7"},
				"east":	{ "uv": [ 0, 0, 9, 16  ], "texture": "#texture6"}
			}
		},
		{
			"from": [ 0.99, 2.01, 10.01 ],
			"to": [ 4.99, 14.01, 14.01 ],
			"faces": {
				"down":	{ "uv": [ 5, 12, 9, 16  ], "texture": "#texture0", "rotation": 270},
				"up":	{ "uv": [ 2, 0, 6, 4  ], "texture": "#texture0", "rotation": 90},
				"north":{ "uv": [ 11, 0, 15, 12  ], "texture": "#texture3"},
				"south":{ "uv": [ 10, 0, 14, 12  ], "texture": "#texture5"},
				"west":	{ "uv": [ 10, 0, 14, 12  ], "texture": "#texture4"},
				"east":	{ "uv": [ 11, 0, 15, 12  ], "texture": "#texture3"}
			}
		},
		{
			"from": [ 7.0, 0.0, 4.0 ],
			"to": [ 9.0, 2.0, 12.0 ],
			"faces": {
				"down":	{ "uv": [ 0, 12, 8, 14  ], "texture": "#texture3", "rotation": 270},
				"up":	{ "uv": [ 0, 10, 8, 12  ], "texture": "#texture3", "rotation": 90},
				"west":	{ "uv": [ 6, 2, 14, 4  ], "texture": "#texture0"},
				"east":	{ "uv": [ 6, 0, 14, 2  ], "texture": "#texture0"}
			}
		},
		{
			"from": [ 5.0, 0.0, 2.0 ],
			"to": [ 16.0, 2.0, 4.0 ],
			"faces": {
				"down":	{ "uv": [ 14, 0, 16, 11  ], "texture": "#texture5", "rotation": 270},
				"up":	{ "uv": [ 14, 0, 16, 11  ], "texture": "#texture4", "rotation": 90},
				"north":{ "uv": [ 0, 0, 11, 2  ], "texture": "#texture8"},
				"south":{ "uv": [ 0, 14, 11, 16  ], "texture": "#texture3"},
				"east":	{ "uv": [ 1, 12, 3, 14  ], "texture": "#texture0"}
			}
		},
		{
			"from": [ 3.0, 0.0, 12.0 ],
			"to": [ 16.0, 2.0, 14.0 ],
			"faces": {
				"down":	{ "uv": [ 11, 0, 13, 13  ], "texture": "#texture6", "rotation": 270},
				"up":	{ "uv": [ 9, 0, 11, 13  ], "texture": "#texture6", "rotation": 90},
				"north":{ "uv": [ 0, 4, 13, 6  ], "texture": "#texture8"},
				"south":{ "uv": [ 0, 2, 13, 4  ], "texture": "#texture8"},
				"west":	{ "uv": [ 1, 14, 3, 16  ], "texture": "#texture0"},
				"east":	{ "uv": [ 1, 12, 3, 14  ], "texture": "#texture0"}
			}
		},
		{
			"from": [ 4.99, 14.01, 14.01 ],
			"to": [ 0.99, 2.01, 10.01 ],
			"faces": {
				"down":	{ "uv": [ 2, 4, 6, 0  ], "texture": "#texture0", "rotation": 270},
				"up":	{ "uv": [ 5, 16, 9, 12  ], "texture": "#texture0", "rotation": 270},
				"north":{ "uv": [ 14, 0, 10, 12  ], "texture": "#texture5", "rotation": 180},
				"south":{ "uv": [ 15, 0, 11, 12  ], "texture": "#texture3", "rotation": 180},
				"west":	{ "uv": [ 15, 0, 11, 12  ], "texture": "#texture3", "rotation": 180},
				"east":	{ "uv": [ 14, 0, 10, 12  ], "texture": "#texture4", "rotation": 180}
			}
		}
	]
}