{
    "parent": "block/cube",
    "textures": {
    "particle":"futurepack:blocks/misc/saplingdirt",
    "down":"futurepack:blocks/misc/saplingdirt",
    "up":"futurepack:blocks/misc/saplingdirt_empty",
    "north":"futurepack:blocks/misc/saplingdirt",
    "east":"futurepack:blocks/misc/saplingdirt",
    "south":"futurepack:blocks/misc/saplingdirt",
    "west":"futurepack:blocks/misc/saplingdirt"
    }
}
