{
	"parent": "block/cube",
	"textures": {
	"particle":"futurepack:blocks/machines/scanner_s_an",
	"down":"futurepack:blocks/deko/color_iron_black",
	"up":"futurepack:blocks/machines/scanner_top_s_an",
	"north":"futurepack:blocks/machines/scanner_s_an",
	"east":"futurepack:blocks/deko/color_iron_black",
	"south":"futurepack:blocks/machines/luftung_s",
	"west":"futurepack:blocks/deko/color_iron_black"
	}
}