{
	"parent": "block/cube",
	"textures": {
	"particle":"futurepack:blocks/machines/sorter_out",
	"down":"futurepack:blocks/machines/sorter_in",
	"up":"futurepack:blocks/machines/sorter_out",
	"north":"futurepack:blocks/machines/sorter_0",
	"east":"futurepack:blocks/machines/sorter_1",
	"south":"futurepack:blocks/machines/sorter_2",
	"west":"futurepack:blocks/machines/sorter_3"
	}
}
