{
  "parent": "block/orientable",
  "textures": {
    "top": "futurepack:blocks/deko/color_iron_light_gray",
    "front": "futurepack:blocks/deko/thruster_light_gray_yellow",
    "side": "futurepack:blocks/deko/color_iron_light_gray"
  }
}