{
    "parent": "block/block",
    "textures":
	{
        "base": "futurepack:blocks/logistic/fluid_tube",
		"particle": "futurepack:blocks/logistic/fluid_tube_p"
    },
    "elements":
	[
        {
            "from": [6,0,6],
            "to": [10,6,10],
            "faces":
			{
                "west":
				{
					"uv": [6,10,10,16],
                    "texture": "#base"
                },
                "east":
				{
					"uv": [6,10,10,16],
                    "texture": "#base"
                },
                "north":
				{
					"uv": [6,10,10,16],
                    "texture": "#base"
                },
                "south":
				{
                    "uv": [6,10,10,16],
                    "texture": "#base"
                }
            }
        }
    ]
}