{
  "data": {
    "0-0-0": "0",
    "0-0-1": "0",
    "0-0-2": "0",
    "0-0-3": "0",
    "0-0-4": "0",
    "0-0-5": "0",
    "0-0-6": "0",
    "0-0-7": "0",
    "0-0-8": "0",
    "0-1-0": "0",
    "0-1-1": "0",
    "0-1-2": "0",
    "0-1-3": "0",
    "0-1-4": "0",
    "0-1-5": "0",
    "0-1-6": "0",
    "0-1-7": "0",
    "0-1-8": "0",
    "0-2-0": "1",
    "0-2-1": "1",
    "0-2-2": "1",
    "0-2-3": "1",
    "0-2-4": "1",
    "0-2-5": "1",
    "0-2-6": "1",
    "0-2-7": "1",
    "0-2-8": "1",
    "0-3-0": "0",
    "0-3-1": "0",
    "0-3-2": "0",
    "0-3-3": "0",
    "0-3-4": "0",
    "0-3-5": "0",
    "0-3-6": "0",
    "0-3-7": "0",
    "0-3-8": "0",
    "0-4-0": "0",
    "0-4-1": "0",
    "0-4-2": "0",
    "0-4-3": "0",
    "0-4-4": "0",
    "0-4-5": "0",
    "0-4-6": "0",
    "0-4-7": "0",
    "0-4-8": "0",
    "1-0-0": "2",
    "1-0-1": "3",
    "1-0-2": "3",
    "1-0-3": "3",
    "1-0-4": "3",
    "1-0-5": "3",
    "1-0-6": "3",
    "1-0-7": "3",
    "1-0-8": "4",
    "1-1-0": "5",
    "1-1-1": "5",
    "1-1-2": "5",
    "1-1-3": "5",
    "1-1-4": "5",
    "1-1-5": "5",
    "1-1-6": "5",
    "1-1-7": "5",
    "1-1-8": "5",
    "1-2-0": "5",
    "1-2-1": "5",
    "1-2-2": "5",
    "1-2-3": "5",
    "1-2-4": "5",
    "1-2-5": "5",
    "1-2-6": "5",
    "1-2-7": "5",
    "1-2-8": "5",
    "1-3-0": "5",
    "1-3-1": "5",
    "1-3-2": "5",
    "1-3-3": "5",
    "1-3-4": "5",
    "1-3-5": "5",
    "1-3-6": "5",
    "1-3-7": "5",
    "1-3-8": "5",
    "1-4-0": "2",
    "1-4-1": "3",
    "1-4-2": "3",
    "1-4-3": "3",
    "1-4-4": "3",
    "1-4-5": "3",
    "1-4-6": "3",
    "1-4-7": "3",
    "1-4-8": "4",
    "2-0-0": "6",
    "2-0-1": "6",
    "2-0-2": "6",
    "2-0-3": "6",
    "2-0-4": "6",
    "2-0-5": "6",
    "2-0-6": "6",
    "2-0-7": "6",
    "2-0-8": "6",
    "2-1-0": "5",
    "2-1-1": "5",
    "2-1-2": "5",
    "2-1-3": "5",
    "2-1-4": "5",
    "2-1-5": "5",
    "2-1-6": "5",
    "2-1-7": "5",
    "2-1-8": "5",
    "2-2-0": "5",
    "2-2-1": "5",
    "2-2-2": "5",
    "2-2-3": "5",
    "2-2-4": "5",
    "2-2-5": "5",
    "2-2-6": "5",
    "2-2-7": "5",
    "2-2-8": "5",
    "2-3-0": "5",
    "2-3-1": "5",
    "2-3-2": "5",
    "2-3-3": "5",
    "2-3-4": "5",
    "2-3-5": "5",
    "2-3-6": "5",
    "2-3-7": "5",
    "2-3-8": "5",
    "2-4-0": "6",
    "2-4-1": "6",
    "2-4-2": "6",
    "2-4-3": "6",
    "2-4-4": "6",
    "2-4-5": "6",
    "2-4-6": "6",
    "2-4-7": "6",
    "2-4-8": "6",
    "3-0-0": "2",
    "3-0-1": "3",
    "3-0-2": "3",
    "3-0-3": "3",
    "3-0-4": "3",
    "3-0-5": "3",
    "3-0-6": "3",
    "3-0-7": "3",
    "3-0-8": "4",
    "3-1-0": "5",
    "3-1-1": "5",
    "3-1-2": "5",
    "3-1-3": "5",
    "3-1-4": "5",
    "3-1-5": "5",
    "3-1-6": "5",
    "3-1-7": "5",
    "3-1-8": "5",
    "3-2-0": "5",
    "3-2-1": "5",
    "3-2-2": "5",
    "3-2-3": "5",
    "3-2-4": "5",
    "3-2-5": "5",
    "3-2-6": "5",
    "3-2-7": "5",
    "3-2-8": "5",
    "3-3-0": "5",
    "3-3-1": "5",
    "3-3-2": "5",
    "3-3-3": "5",
    "3-3-4": "5",
    "3-3-5": "5",
    "3-3-6": "5",
    "3-3-7": "5",
    "3-3-8": "5",
    "3-4-0": "2",
    "3-4-1": "3",
    "3-4-2": "3",
    "3-4-3": "3",
    "3-4-4": "3",
    "3-4-5": "3",
    "3-4-6": "3",
    "3-4-7": "3",
    "3-4-8": "4",
    "4-0-0": "0",
    "4-0-1": "0",
    "4-0-2": "0",
    "4-0-3": "0",
    "4-0-4": "0",
    "4-0-5": "0",
    "4-0-6": "0",
    "4-0-7": "0",
    "4-0-8": "0",
    "4-1-0": "0",
    "4-1-1": "0",
    "4-1-2": "0",
    "4-1-3": "0",
    "4-1-4": "0",
    "4-1-5": "0",
    "4-1-6": "0",
    "4-1-7": "0",
    "4-1-8": "0",
    "4-2-0": "1",
    "4-2-1": "1",
    "4-2-2": "1",
    "4-2-3": "1",
    "4-2-4": "1",
    "4-2-5": "1",
    "4-2-6": "1",
    "4-2-7": "1",
    "4-2-8": "1",
    "4-3-0": "0",
    "4-3-1": "0",
    "4-3-2": "0",
    "4-3-3": "0",
    "4-3-4": "0",
    "4-3-5": "0",
    "4-3-6": "0",
    "4-3-7": "0",
    "4-3-8": "0",
    "4-4-0": "0",
    "4-4-1": "0",
    "4-4-2": "0",
    "4-4-3": "0",
    "4-4-4": "0",
    "4-4-5": "0",
    "4-4-6": "0",
    "4-4-7": "0",
    "4-4-8": "0"
  },
  "inventorys": [],
  "doors": [
    {
      "facing": 2,
      "w": 3,
      "h": 3,
      "d": 1,
      "start": "1,1,0"
    },
    {
      "facing": 3,
      "w": 3,
      "h": 3,
      "d": 1,
      "start": "1,1,8"
    }
  ],
  "stateMap": {
    "0": "futurepack:color_iron_gray:",
    "1": "futurepack:color_iron_purple:",
    "2": "futurepack:quantanium:down\u003dfalse;east\u003dfalse;north\u003dfalse;south\u003dtrue;up\u003dfalse;west\u003dfalse",
    "3": "futurepack:quantanium:down\u003dfalse;east\u003dfalse;north\u003dtrue;south\u003dtrue;up\u003dfalse;west\u003dfalse",
    "4": "futurepack:quantanium:down\u003dfalse;east\u003dfalse;north\u003dtrue;south\u003dfalse;up\u003dfalse;west\u003dfalse",
    "5": "minecraft:air:",
    "6": "futurepack:color_iron_black:"
  }
}