{
  "data": {
    "0-5-0": "0",
    "0-5-1": "1",
    "0-5-2": "2",
    "0-5-3": "1",
    "0-5-4": "0",
    "0-6-0": "0",
    "0-6-1": "3",
    "0-6-2": "3",
    "0-6-3": "3",
    "0-6-4": "0",
    "0-7-0": "4",
    "0-7-1": "3",
    "0-7-2": "3",
    "0-7-3": "3",
    "0-7-4": "4",
    "0-8-0": "0",
    "0-8-1": "3",
    "0-8-2": "3",
    "0-8-3": "3",
    "0-8-4": "0",
    "0-9-0": "0",
    "0-9-1": "1",
    "0-9-2": "2",
    "0-9-3": "1",
    "0-9-4": "0",
    "1-5-0": "0",
    "1-5-1": "5",
    "1-5-2": "2",
    "1-5-3": "5",
    "1-5-4": "0",
    "1-6-0": "0",
    "1-6-1": "3",
    "1-6-2": "3",
    "1-6-3": "3",
    "1-6-4": "0",
    "1-7-0": "4",
    "1-7-1": "3",
    "1-7-2": "3",
    "1-7-3": "3",
    "1-7-4": "4",
    "1-8-0": "0",
    "1-8-1": "3",
    "1-8-2": "3",
    "1-8-3": "3",
    "1-8-4": "0",
    "1-9-0": "0",
    "1-9-1": "6",
    "1-9-2": "2",
    "1-9-3": "6",
    "1-9-4": "0",
    "2-4-2": "0",
    "2-5-0": "0",
    "2-5-1": "7",
    "2-5-2": "7",
    "2-5-3": "7",
    "2-5-4": "0",
    "2-6-0": "0",
    "2-6-1": "3",
    "2-6-2": "3",
    "2-6-3": "3",
    "2-6-4": "0",
    "2-7-0": "4",
    "2-7-1": "3",
    "2-7-2": "3",
    "2-7-3": "3",
    "2-7-4": "4",
    "2-8-0": "0",
    "2-8-1": "3",
    "2-8-2": "3",
    "2-8-3": "3",
    "2-8-4": "0",
    "2-9-0": "0",
    "2-9-1": "5",
    "2-9-2": "2",
    "2-9-3": "5",
    "2-9-4": "0",
    "3-3-2": "0",
    "3-4-0": "0",
    "3-4-1": "7",
    "3-4-2": "7",
    "3-4-3": "7",
    "3-4-4": "0",
    "3-5-0": "0",
    "3-5-1": "3",
    "3-5-2": "3",
    "3-5-3": "3",
    "3-5-4": "0",
    "3-6-0": "4",
    "3-6-1": "3",
    "3-6-2": "3",
    "3-6-3": "3",
    "3-6-4": "4",
    "3-7-0": "0",
    "3-7-1": "3",
    "3-7-2": "3",
    "3-7-3": "3",
    "3-7-4": "0",
    "3-8-0": "0",
    "3-8-1": "8",
    "3-8-2": "9",
    "3-8-3": "8",
    "3-8-4": "0",
    "4-2-2": "0",
    "4-3-0": "0",
    "4-3-1": "7",
    "4-3-2": "7",
    "4-3-3": "7",
    "4-3-4": "0",
    "4-4-0": "0",
    "4-4-1": "3",
    "4-4-2": "3",
    "4-4-3": "3",
    "4-4-4": "0",
    "4-5-0": "4",
    "4-5-1": "3",
    "4-5-2": "3",
    "4-5-3": "3",
    "4-5-4": "4",
    "4-6-0": "0",
    "4-6-1": "3",
    "4-6-2": "3",
    "4-6-3": "3",
    "4-6-4": "0",
    "4-7-0": "0",
    "4-7-1": "8",
    "4-7-2": "9",
    "4-7-3": "8",
    "4-7-4": "0",
    "5-1-2": "0",
    "5-2-0": "0",
    "5-2-1": "7",
    "5-2-2": "7",
    "5-2-3": "7",
    "5-2-4": "0",
    "5-3-0": "0",
    "5-3-1": "3",
    "5-3-2": "3",
    "5-3-3": "3",
    "5-3-4": "0",
    "5-4-0": "4",
    "5-4-1": "3",
    "5-4-2": "3",
    "5-4-3": "3",
    "5-4-4": "4",
    "5-5-0": "0",
    "5-5-1": "3",
    "5-5-2": "3",
    "5-5-3": "3",
    "5-5-4": "0",
    "5-6-0": "0",
    "5-6-1": "8",
    "5-6-2": "9",
    "5-6-3": "8",
    "5-6-4": "0",
    "6-0-2": "0",
    "6-1-0": "0",
    "6-1-1": "7",
    "6-1-2": "7",
    "6-1-3": "7",
    "6-1-4": "0",
    "6-2-0": "0",
    "6-2-1": "3",
    "6-2-2": "3",
    "6-2-3": "3",
    "6-2-4": "0",
    "6-3-0": "4",
    "6-3-1": "3",
    "6-3-2": "3",
    "6-3-3": "3",
    "6-3-4": "4",
    "6-4-0": "0",
    "6-4-1": "3",
    "6-4-2": "3",
    "6-4-3": "3",
    "6-4-4": "0",
    "6-5-0": "0",
    "6-5-1": "8",
    "6-5-2": "9",
    "6-5-3": "8",
    "6-5-4": "0",
    "7-0-0": "0",
    "7-0-1": "1",
    "7-0-2": "2",
    "7-0-3": "1",
    "7-0-4": "0",
    "7-1-0": "0",
    "7-1-1": "3",
    "7-1-2": "3",
    "7-1-3": "3",
    "7-1-4": "0",
    "7-2-0": "4",
    "7-2-1": "3",
    "7-2-2": "3",
    "7-2-3": "3",
    "7-2-4": "4",
    "7-3-0": "0",
    "7-3-1": "3",
    "7-3-2": "3",
    "7-3-3": "3",
    "7-3-4": "0",
    "7-4-0": "0",
    "7-4-1": "1",
    "7-4-2": "9",
    "7-4-3": "1",
    "7-4-4": "0",
    "8-0-0": "0",
    "8-0-1": "5",
    "8-0-2": "2",
    "8-0-3": "5",
    "8-0-4": "0",
    "8-1-0": "0",
    "8-1-1": "3",
    "8-1-2": "3",
    "8-1-3": "3",
    "8-1-4": "0",
    "8-2-0": "4",
    "8-2-1": "3",
    "8-2-2": "3",
    "8-2-3": "3",
    "8-2-4": "4",
    "8-3-0": "0",
    "8-3-1": "3",
    "8-3-2": "3",
    "8-3-3": "3",
    "8-3-4": "0",
    "8-4-0": "0",
    "8-4-1": "5",
    "8-4-2": "2",
    "8-4-3": "5",
    "8-4-4": "0"
  },
  "inventorys": [],
  "doors": [
    {
      "facing": 4,
      "w": 1,
      "h": 3,
      "d": 3,
      "start": "0,6,1"
    },
    {
      "facing": 5,
      "w": 1,
      "h": 3,
      "d": 3,
      "start": "8,1,1"
    }
  ],
  "stateMap": {
    "0": "futurepack:color_iron_gray:",
    "1": "futurepack:quantanium:down\u003dfalse;east\u003dtrue;north\u003dfalse;south\u003dfalse;up\u003dfalse;west\u003dfalse",
    "2": "futurepack:color_iron_black:",
    "3": "minecraft:air:",
    "4": "futurepack:color_iron_purple:",
    "5": "futurepack:quantanium:down\u003dfalse;east\u003dfalse;north\u003dfalse;south\u003dfalse;up\u003dfalse;west\u003dtrue",
    "6": "futurepack:quantanium:down\u003dfalse;east\u003dtrue;north\u003dfalse;south\u003dfalse;up\u003dfalse;west\u003dtrue",
    "7": "futurepack:color_iron_stair_black:facing\u003dwest;half\u003dbottom;shape\u003dstraight;waterlogged\u003dfalse",
    "8": "futurepack:quantanium:down\u003dfalse;east\u003dfalse;north\u003dfalse;south\u003dfalse;up\u003dfalse;west\u003dfalse",
    "9": "futurepack:color_iron_stair_black:facing\u003deast;half\u003dtop;shape\u003dstraight;waterlogged\u003dfalse"
  }
}