{
  "data": {
    "0-0-0": "0",
    "0-0-1": "1",
    "0-0-2": "2",
    "0-0-3": "1",
    "0-0-4": "0",
    "0-1-0": "0",
    "0-1-1": "7",
    "0-1-2": "7",
    "0-1-3": "7",
    "0-1-4": "0",
    "0-2-0": "3",
    "0-2-1": "7",
    "0-2-2": "7",
    "0-2-3": "7",
    "0-2-4": "3",
    "0-3-0": "0",
    "0-3-1": "7",
    "0-3-2": "7",
    "0-3-3": "7",
    "0-3-4": "0",
    "0-4-0": "0",
    "0-4-1": "1",
    "0-4-2": "2",
    "0-4-3": "1",
    "0-4-4": "0",
    "1-0-0": "4",
    "1-0-1": "5",
    "1-0-2": "2",
    "1-0-3": "6",
    "1-0-4": "0",
    "1-1-0": "7",
    "1-1-1": "7",
    "1-1-2": "7",
    "1-1-3": "7",
    "1-1-4": "0",
    "1-2-0": "7",
    "1-2-1": "7",
    "1-2-2": "7",
    "1-2-3": "7",
    "1-2-4": "3",
    "1-3-0": "7",
    "1-3-1": "7",
    "1-3-2": "7",
    "1-3-3": "7",
    "1-3-4": "0",
    "1-4-0": "4",
    "1-4-1": "5",
    "1-4-2": "2",
    "1-4-3": "6",
    "1-4-4": "0",
    "2-0-0": "2",
    "2-0-1": "2",
    "2-0-2": "2",
    "2-0-3": "6",
    "2-0-4": "0",
    "2-1-0": "7",
    "2-1-1": "7",
    "2-1-2": "7",
    "2-1-3": "7",
    "2-1-4": "0",
    "2-2-0": "7",
    "2-2-1": "7",
    "2-2-2": "7",
    "2-2-3": "7",
    "2-2-4": "3",
    "2-3-0": "7",
    "2-3-1": "7",
    "2-3-2": "7",
    "2-3-3": "7",
    "2-3-4": "0",
    "2-4-0": "2",
    "2-4-1": "2",
    "2-4-2": "2",
    "2-4-3": "6",
    "2-4-4": "0",
    "3-0-0": "4",
    "3-0-1": "8",
    "3-0-2": "2",
    "3-0-3": "6",
    "3-0-4": "0",
    "3-1-0": "7",
    "3-1-1": "7",
    "3-1-2": "7",
    "3-1-3": "7",
    "3-1-4": "0",
    "3-2-0": "7",
    "3-2-1": "7",
    "3-2-2": "7",
    "3-2-3": "7",
    "3-2-4": "3",
    "3-3-0": "7",
    "3-3-1": "7",
    "3-3-2": "7",
    "3-3-3": "7",
    "3-3-4": "0",
    "3-4-0": "4",
    "3-4-1": "8",
    "3-4-2": "2",
    "3-4-3": "6",
    "3-4-4": "0",
    "4-0-0": "0",
    "4-0-1": "9",
    "4-0-2": "2",
    "4-0-3": "9",
    "4-0-4": "0",
    "4-1-0": "0",
    "4-1-1": "7",
    "4-1-2": "7",
    "4-1-3": "7",
    "4-1-4": "0",
    "4-2-0": "3",
    "4-2-1": "7",
    "4-2-2": "7",
    "4-2-3": "7",
    "4-2-4": "3",
    "4-3-0": "0",
    "4-3-1": "7",
    "4-3-2": "7",
    "4-3-3": "7",
    "4-3-4": "0",
    "4-4-0": "0",
    "4-4-1": "9",
    "4-4-2": "2",
    "4-4-3": "9",
    "4-4-4": "0"
  },
  "inventorys": [],
  "doors": [
    {
      "facing": 4,
      "w": 1,
      "h": 3,
      "d": 3,
      "start": "0,1,1",
      "type": "water"
    },
    {
      "facing": 2,
      "w": 3,
      "h": 3,
      "d": 1,
      "start": "1,1,0",
      "type": "water"
    },
    {
      "facing": 5,
      "w": 1,
      "h": 3,
      "d": 3,
      "start": "4,1,1",
      "type": "water"
    }
  ],
  "stateMap": {
    "0": "futurepack:color_iron_gray:",
    "1": "futurepack:quantanium:down\u003dfalse;east\u003dtrue;glowing\u003dfalse;north\u003dfalse;south\u003dfalse;up\u003dfalse;west\u003dfalse",
    "2": "futurepack:color_iron_black:",
    "3": "futurepack:color_iron_purple:",
    "4": "futurepack:quantanium:down\u003dfalse;east\u003dfalse;glowing\u003dfalse;north\u003dfalse;south\u003dtrue;up\u003dfalse;west\u003dfalse",
    "5": "futurepack:quantanium:down\u003dfalse;east\u003dfalse;glowing\u003dfalse;north\u003dtrue;south\u003dfalse;up\u003dfalse;west\u003dtrue",
    "6": "futurepack:quantanium:down\u003dfalse;east\u003dtrue;glowing\u003dfalse;north\u003dfalse;south\u003dfalse;up\u003dfalse;west\u003dtrue",
    "7": "minecraft:water:level\u003d0",
    "8": "futurepack:quantanium:down\u003dfalse;east\u003dtrue;glowing\u003dfalse;north\u003dtrue;south\u003dfalse;up\u003dfalse;west\u003dfalse",
    "9": "futurepack:quantanium:down\u003dfalse;east\u003dfalse;glowing\u003dfalse;north\u003dfalse;south\u003dfalse;up\u003dfalse;west\u003dtrue"
  }
}