{
  "data": {
    "0-1-2": "0",
    "0-1-3": "0",
    "0-1-4": "0",
    "0-1-5": "0",
    "0-1-6": "0",
    "0-2-2": "0",
    "0-2-3": "0",
    "0-2-4": "0",
    "0-2-5": "0",
    "0-2-6": "0",
    "0-3-2": "1",
    "0-3-3": "1",
    "0-3-4": "1",
    "0-3-5": "1",
    "0-3-6": "1",
    "0-4-2": "0",
    "0-4-3": "0",
    "0-4-4": "0",
    "0-4-5": "0",
    "0-4-6": "0",
    "0-5-2": "0",
    "0-5-3": "0",
    "0-5-4": "0",
    "0-5-5": "0",
    "0-5-6": "0",
    "1-1-1": "0",
    "1-1-2": "2",
    "1-1-3": "3",
    "1-1-4": "3",
    "1-1-5": "3",
    "1-1-6": "4",
    "1-1-7": "0",
    "1-2-1": "0",
    "1-2-2": "5",
    "1-2-3": "6",
    "1-2-4": "7",
    "1-2-5": "8",
    "1-2-6": "5",
    "1-2-7": "0",
    "1-3-1": "1",
    "1-3-2": "5",
    "1-3-3": "9",
    "1-3-4": "9",
    "1-3-5": "9",
    "1-3-6": "5",
    "1-3-7": "1",
    "1-4-1": "0",
    "1-4-2": "5",
    "1-4-3": "a",
    "1-4-4": "b",
    "1-4-5": "c",
    "1-4-6": "5",
    "1-4-7": "0",
    "1-5-1": "0",
    "1-5-2": "2",
    "1-5-3": "3",
    "1-5-4": "3",
    "1-5-5": "3",
    "1-5-6": "4",
    "1-5-7": "0",
    "2-1-0": "0",
    "2-1-1": "d",
    "2-1-2": "e",
    "2-1-3": "e",
    "2-1-4": "e",
    "2-1-5": "e",
    "2-1-6": "e",
    "2-1-7": "d",
    "2-1-8": "0",
    "2-2-0": "0",
    "2-2-1": "5",
    "2-2-2": "5",
    "2-2-3": "5",
    "2-2-4": "5",
    "2-2-5": "5",
    "2-2-6": "5",
    "2-2-7": "5",
    "2-2-8": "0",
    "2-3-0": "1",
    "2-3-1": "5",
    "2-3-2": "5",
    "2-3-3": "5",
    "2-3-4": "5",
    "2-3-5": "5",
    "2-3-6": "5",
    "2-3-7": "5",
    "2-3-8": "1",
    "2-4-0": "0",
    "2-4-1": "5",
    "2-4-2": "5",
    "2-4-3": "5",
    "2-4-4": "5",
    "2-4-5": "5",
    "2-4-6": "5",
    "2-4-7": "5",
    "2-4-8": "0",
    "2-5-0": "0",
    "2-5-1": "d",
    "2-5-2": "e",
    "2-5-3": "e",
    "2-5-4": "e",
    "2-5-5": "e",
    "2-5-6": "e",
    "2-5-7": "d",
    "2-5-8": "0",
    "3-1-0": "0",
    "3-1-1": "f",
    "3-1-2": "0",
    "3-1-3": "e",
    "3-1-4": "e",
    "3-1-5": "e",
    "3-1-6": "0",
    "3-1-7": "f",
    "3-1-8": "0",
    "3-2-0": "0",
    "3-2-1": "10",
    "3-2-2": "0",
    "3-2-3": "5",
    "3-2-4": "5",
    "3-2-5": "5",
    "3-2-6": "0",
    "3-2-7": "11",
    "3-2-8": "0",
    "3-3-0": "1",
    "3-3-1": "10",
    "3-3-2": "1",
    "3-3-3": "5",
    "3-3-4": "5",
    "3-3-5": "5",
    "3-3-6": "1",
    "3-3-7": "11",
    "3-3-8": "1",
    "3-4-0": "0",
    "3-4-1": "10",
    "3-4-2": "0",
    "3-4-3": "5",
    "3-4-4": "5",
    "3-4-5": "5",
    "3-4-6": "0",
    "3-4-7": "11",
    "3-4-8": "0",
    "3-5-0": "0",
    "3-5-1": "f",
    "3-5-2": "e",
    "3-5-3": "1",
    "3-5-4": "1",
    "3-5-5": "1",
    "3-5-6": "e",
    "3-5-7": "f",
    "3-5-8": "0",
    "4-1-0": "0",
    "4-1-1": "f",
    "4-1-2": "e",
    "4-1-3": "e",
    "4-1-4": "e",
    "4-1-5": "e",
    "4-1-6": "e",
    "4-1-7": "f",
    "4-1-8": "0",
    "4-2-0": "0",
    "4-2-1": "12",
    "4-2-2": "13",
    "4-2-3": "5",
    "4-2-4": "5",
    "4-2-5": "5",
    "4-2-6": "14",
    "4-2-7": "12",
    "4-2-8": "0",
    "4-3-0": "1",
    "4-3-1": "12",
    "4-3-2": "13",
    "4-3-3": "5",
    "4-3-4": "5",
    "4-3-5": "5",
    "4-3-6": "14",
    "4-3-7": "12",
    "4-3-8": "1",
    "4-4-0": "0",
    "4-4-1": "12",
    "4-4-2": "13",
    "4-4-3": "5",
    "4-4-4": "5",
    "4-4-5": "5",
    "4-4-6": "14",
    "4-4-7": "12",
    "4-4-8": "0",
    "4-5-0": "0",
    "4-5-1": "f",
    "4-5-2": "e",
    "4-5-3": "1",
    "4-5-4": "1",
    "4-5-5": "1",
    "4-5-6": "e",
    "4-5-7": "f",
    "4-5-8": "0",
    "5-1-0": "0",
    "5-1-1": "f",
    "5-1-2": "0",
    "5-1-3": "e",
    "5-1-4": "e",
    "5-1-5": "e",
    "5-1-6": "0",
    "5-1-7": "f",
    "5-1-8": "0",
    "5-2-0": "0",
    "5-2-1": "5",
    "5-2-2": "0",
    "5-2-3": "5",
    "5-2-4": "5",
    "5-2-5": "5",
    "5-2-6": "0",
    "5-2-7": "5",
    "5-2-8": "0",
    "5-3-0": "1",
    "5-3-1": "5",
    "5-3-2": "1",
    "5-3-3": "5",
    "5-3-4": "5",
    "5-3-5": "5",
    "5-3-6": "1",
    "5-3-7": "5",
    "5-3-8": "1",
    "5-4-0": "0",
    "5-4-1": "5",
    "5-4-2": "0",
    "5-4-3": "5",
    "5-4-4": "5",
    "5-4-5": "5",
    "5-4-6": "0",
    "5-4-7": "5",
    "5-4-8": "0",
    "5-5-0": "0",
    "5-5-1": "f",
    "5-5-2": "e",
    "5-5-3": "1",
    "5-5-4": "1",
    "5-5-5": "1",
    "5-5-6": "e",
    "5-5-7": "f",
    "5-5-8": "0",
    "6-0-0": "15",
    "6-1-0": "0",
    "6-1-1": "f",
    "6-1-2": "e",
    "6-1-3": "e",
    "6-1-4": "e",
    "6-1-5": "e",
    "6-1-6": "e",
    "6-1-7": "f",
    "6-1-8": "0",
    "6-2-0": "0",
    "6-2-1": "12",
    "6-2-2": "13",
    "6-2-3": "5",
    "6-2-4": "5",
    "6-2-5": "5",
    "6-2-6": "14",
    "6-2-7": "12",
    "6-2-8": "0",
    "6-3-0": "1",
    "6-3-1": "12",
    "6-3-2": "13",
    "6-3-3": "5",
    "6-3-4": "5",
    "6-3-5": "5",
    "6-3-6": "14",
    "6-3-7": "12",
    "6-3-8": "1",
    "6-4-0": "0",
    "6-4-1": "12",
    "6-4-2": "13",
    "6-4-3": "5",
    "6-4-4": "5",
    "6-4-5": "5",
    "6-4-6": "14",
    "6-4-7": "12",
    "6-4-8": "0",
    "6-5-0": "0",
    "6-5-1": "f",
    "6-5-2": "e",
    "6-5-3": "1",
    "6-5-4": "1",
    "6-5-5": "1",
    "6-5-6": "e",
    "6-5-7": "f",
    "6-5-8": "0",
    "7-0-0": "15",
    "7-0-1": "15",
    "7-0-2": "15",
    "7-0-3": "15",
    "7-0-4": "15",
    "7-0-5": "15",
    "7-0-6": "15",
    "7-0-7": "15",
    "7-0-8": "15",
    "7-1-0": "0",
    "7-1-1": "16",
    "7-1-2": "0",
    "7-1-3": "e",
    "7-1-4": "e",
    "7-1-5": "e",
    "7-1-6": "0",
    "7-1-7": "16",
    "7-1-8": "0",
    "7-2-0": "0",
    "7-2-1": "17",
    "7-2-2": "0",
    "7-2-3": "5",
    "7-2-4": "5",
    "7-2-5": "5",
    "7-2-6": "0",
    "7-2-7": "17",
    "7-2-8": "0",
    "7-3-0": "1",
    "7-3-1": "17",
    "7-3-2": "1",
    "7-3-3": "5",
    "7-3-4": "5",
    "7-3-5": "5",
    "7-3-6": "1",
    "7-3-7": "17",
    "7-3-8": "1",
    "7-4-0": "0",
    "7-4-1": "17",
    "7-4-2": "0",
    "7-4-3": "5",
    "7-4-4": "5",
    "7-4-5": "5",
    "7-4-6": "0",
    "7-4-7": "17",
    "7-4-8": "0",
    "7-5-0": "0",
    "7-5-1": "f",
    "7-5-2": "e",
    "7-5-3": "1",
    "7-5-4": "1",
    "7-5-5": "1",
    "7-5-6": "e",
    "7-5-7": "f",
    "7-5-8": "0",
    "8-0-0": "15",
    "8-0-1": "d",
    "8-0-2": "0",
    "8-0-3": "0",
    "8-0-4": "0",
    "8-0-5": "0",
    "8-0-6": "0",
    "8-0-7": "d",
    "8-0-8": "15",
    "8-1-0": "0",
    "8-1-1": "18",
    "8-1-2": "18",
    "8-1-3": "18",
    "8-1-4": "18",
    "8-1-5": "18",
    "8-1-6": "18",
    "8-1-7": "18",
    "8-1-8": "0",
    "8-2-0": "0",
    "8-2-1": "5",
    "8-2-2": "5",
    "8-2-3": "5",
    "8-2-4": "5",
    "8-2-5": "5",
    "8-2-6": "5",
    "8-2-7": "5",
    "8-2-8": "0",
    "8-3-0": "1",
    "8-3-1": "5",
    "8-3-2": "5",
    "8-3-3": "5",
    "8-3-4": "5",
    "8-3-5": "5",
    "8-3-6": "5",
    "8-3-7": "5",
    "8-3-8": "1",
    "8-4-0": "0",
    "8-4-1": "5",
    "8-4-2": "5",
    "8-4-3": "5",
    "8-4-4": "5",
    "8-4-5": "5",
    "8-4-6": "5",
    "8-4-7": "5",
    "8-4-8": "0",
    "8-5-0": "0",
    "8-5-1": "f",
    "8-5-2": "e",
    "8-5-3": "1",
    "8-5-4": "1",
    "8-5-5": "1",
    "8-5-6": "e",
    "8-5-7": "f",
    "8-5-8": "0",
    "9-0-0": "15",
    "9-0-1": "f",
    "9-0-2": "0",
    "9-0-3": "0",
    "9-0-4": "0",
    "9-0-5": "0",
    "9-0-6": "0",
    "9-0-7": "f",
    "9-0-8": "15",
    "9-1-0": "0",
    "9-1-1": "18",
    "9-1-2": "18",
    "9-1-3": "18",
    "9-1-4": "e",
    "9-1-5": "18",
    "9-1-6": "18",
    "9-1-7": "19",
    "9-1-8": "0",
    "9-2-0": "0",
    "9-2-1": "5",
    "9-2-2": "5",
    "9-2-3": "5",
    "9-2-4": "5",
    "9-2-5": "5",
    "9-2-6": "5",
    "9-2-7": "1",
    "9-2-8": "0",
    "9-3-0": "1",
    "9-3-1": "5",
    "9-3-2": "5",
    "9-3-3": "5",
    "9-3-4": "5",
    "9-3-5": "5",
    "9-3-6": "5",
    "9-3-7": "1a",
    "9-3-8": "1",
    "9-4-0": "0",
    "9-4-1": "5",
    "9-4-2": "5",
    "9-4-3": "5",
    "9-4-4": "5",
    "9-4-5": "5",
    "9-4-6": "5",
    "9-4-7": "1a",
    "9-4-8": "0",
    "9-5-0": "0",
    "9-5-1": "f",
    "9-5-2": "e",
    "9-5-3": "1",
    "9-5-4": "1",
    "9-5-5": "1",
    "9-5-6": "e",
    "9-5-7": "f",
    "9-5-8": "0",
    "10-0-0": "15",
    "10-0-1": "f",
    "10-0-2": "0",
    "10-0-3": "0",
    "10-0-4": "0",
    "10-0-5": "0",
    "10-0-6": "0",
    "10-0-7": "f",
    "10-0-8": "15",
    "10-1-0": "0",
    "10-1-1": "18",
    "10-1-2": "18",
    "10-1-3": "18",
    "10-1-4": "18",
    "10-1-5": "18",
    "10-1-6": "18",
    "10-1-7": "18",
    "10-1-8": "0",
    "10-2-0": "0",
    "10-2-1": "5",
    "10-2-2": "5",
    "10-2-3": "5",
    "10-2-4": "5",
    "10-2-5": "5",
    "10-2-6": "5",
    "10-2-7": "1b",
    "10-2-8": "0",
    "10-3-0": "1",
    "10-3-1": "5",
    "10-3-2": "5",
    "10-3-3": "5",
    "10-3-4": "5",
    "10-3-5": "5",
    "10-3-6": "5",
    "10-3-7": "1c",
    "10-3-8": "1",
    "10-4-0": "0",
    "10-4-1": "0",
    "10-4-2": "5",
    "10-4-3": "5",
    "10-4-4": "5",
    "10-4-5": "5",
    "10-4-6": "5",
    "10-4-7": "1c",
    "10-4-8": "0",
    "10-5-0": "0",
    "10-5-1": "f",
    "10-5-2": "e",
    "10-5-3": "1",
    "10-5-4": "1",
    "10-5-5": "1",
    "10-5-6": "e",
    "10-5-7": "f",
    "10-5-8": "0",
    "11-0-0": "15",
    "11-0-1": "f",
    "11-0-2": "0",
    "11-0-3": "0",
    "11-0-4": "0",
    "11-0-5": "0",
    "11-0-6": "0",
    "11-0-7": "f",
    "11-0-8": "15",
    "11-1-0": "0",
    "11-1-1": "18",
    "11-1-2": "1d",
    "11-1-3": "18",
    "11-1-4": "18",
    "11-1-5": "18",
    "11-1-6": "18",
    "11-1-7": "19",
    "11-1-8": "0",
    "11-2-0": "0",
    "11-2-1": "5",
    "11-2-2": "1d",
    "11-2-3": "5",
    "11-2-4": "5",
    "11-2-5": "5",
    "11-2-6": "5",
    "11-2-7": "1",
    "11-2-8": "0",
    "11-3-0": "1",
    "11-3-1": "1e",
    "11-3-2": "1d",
    "11-3-3": "5",
    "11-3-4": "5",
    "11-3-5": "5",
    "11-3-6": "5",
    "11-3-7": "1a",
    "11-3-8": "1",
    "11-4-0": "e",
    "11-4-1": "18",
    "11-4-2": "1f",
    "11-4-3": "5",
    "11-4-4": "5",
    "11-4-5": "5",
    "11-4-6": "5",
    "11-4-7": "1a",
    "11-4-8": "0",
    "11-5-0": "0",
    "11-5-1": "f",
    "11-5-2": "e",
    "11-5-3": "1",
    "11-5-4": "1",
    "11-5-5": "1",
    "11-5-6": "e",
    "11-5-7": "f",
    "11-5-8": "0",
    "12-0-0": "15",
    "12-0-1": "16",
    "12-0-2": "0",
    "12-0-3": "0",
    "12-0-4": "0",
    "12-0-5": "0",
    "12-0-6": "0",
    "12-0-7": "16",
    "12-0-8": "15",
    "12-1-0": "0",
    "12-1-1": "18",
    "12-1-2": "18",
    "12-1-3": "18",
    "12-1-4": "18",
    "12-1-5": "18",
    "12-1-6": "18",
    "12-1-7": "18",
    "12-1-8": "0",
    "12-2-0": "0",
    "12-2-1": "5",
    "12-2-2": "5",
    "12-2-3": "5",
    "12-2-4": "5",
    "12-2-5": "5",
    "12-2-6": "5",
    "12-2-7": "5",
    "12-2-8": "0",
    "12-3-0": "1",
    "12-3-1": "5",
    "12-3-2": "5",
    "12-3-3": "5",
    "12-3-4": "5",
    "12-3-5": "5",
    "12-3-6": "5",
    "12-3-7": "5",
    "12-3-8": "1",
    "12-4-0": "0",
    "12-4-1": "0",
    "12-4-2": "5",
    "12-4-3": "5",
    "12-4-4": "5",
    "12-4-5": "5",
    "12-4-6": "5",
    "12-4-7": "5",
    "12-4-8": "0",
    "12-5-0": "0",
    "12-5-1": "f",
    "12-5-2": "e",
    "12-5-3": "1",
    "12-5-4": "1",
    "12-5-5": "1",
    "12-5-6": "e",
    "12-5-7": "f",
    "12-5-8": "0",
    "13-0-0": "15",
    "13-0-1": "15",
    "13-0-2": "15",
    "13-0-3": "15",
    "13-0-4": "15",
    "13-0-5": "15",
    "13-0-6": "15",
    "13-0-7": "15",
    "13-0-8": "15",
    "13-1-0": "0",
    "13-1-1": "d",
    "13-1-2": "e",
    "13-1-3": "e",
    "13-1-4": "e",
    "13-1-5": "e",
    "13-1-6": "e",
    "13-1-7": "d",
    "13-1-8": "0",
    "13-2-0": "0",
    "13-2-1": "5",
    "13-2-2": "5",
    "13-2-3": "5",
    "13-2-4": "5",
    "13-2-5": "5",
    "13-2-6": "5",
    "13-2-7": "5",
    "13-2-8": "0",
    "13-3-0": "1",
    "13-3-1": "5",
    "13-3-2": "5",
    "13-3-3": "5",
    "13-3-4": "5",
    "13-3-5": "5",
    "13-3-6": "5",
    "13-3-7": "5",
    "13-3-8": "1",
    "13-4-0": "0",
    "13-4-1": "5",
    "13-4-2": "5",
    "13-4-3": "5",
    "13-4-4": "5",
    "13-4-5": "5",
    "13-4-6": "5",
    "13-4-7": "5",
    "13-4-8": "0",
    "13-5-0": "0",
    "13-5-1": "f",
    "13-5-2": "e",
    "13-5-3": "1",
    "13-5-4": "1",
    "13-5-5": "1",
    "13-5-6": "e",
    "13-5-7": "f",
    "13-5-8": "0",
    "14-1-0": "0",
    "14-1-1": "f",
    "14-1-2": "e",
    "14-1-3": "e",
    "14-1-4": "e",
    "14-1-5": "e",
    "14-1-6": "e",
    "14-1-7": "f",
    "14-1-8": "0",
    "14-2-0": "0",
    "14-2-1": "5",
    "14-2-2": "5",
    "14-2-3": "5",
    "14-2-4": "5",
    "14-2-5": "5",
    "14-2-6": "5",
    "14-2-7": "5",
    "14-2-8": "0",
    "14-3-0": "1",
    "14-3-1": "5",
    "14-3-2": "5",
    "14-3-3": "5",
    "14-3-4": "5",
    "14-3-5": "5",
    "14-3-6": "5",
    "14-3-7": "5",
    "14-3-8": "1",
    "14-4-0": "0",
    "14-4-1": "5",
    "14-4-2": "5",
    "14-4-3": "5",
    "14-4-4": "5",
    "14-4-5": "5",
    "14-4-6": "5",
    "14-4-7": "5",
    "14-4-8": "0",
    "14-5-0": "0",
    "14-5-1": "f",
    "14-5-2": "e",
    "14-5-3": "1",
    "14-5-4": "1",
    "14-5-5": "1",
    "14-5-6": "e",
    "14-5-7": "f",
    "14-5-8": "0",
    "15-1-0": "0",
    "15-1-1": "16",
    "15-1-2": "e",
    "15-1-3": "e",
    "15-1-4": "e",
    "15-1-5": "e",
    "15-1-6": "e",
    "15-1-7": "16",
    "15-1-8": "0",
    "15-2-0": "0",
    "15-2-1": "5",
    "15-2-2": "5",
    "15-2-3": "5",
    "15-2-4": "5",
    "15-2-5": "5",
    "15-2-6": "5",
    "15-2-7": "5",
    "15-2-8": "0",
    "15-3-0": "1",
    "15-3-1": "5",
    "15-3-2": "5",
    "15-3-3": "5",
    "15-3-4": "5",
    "15-3-5": "5",
    "15-3-6": "5",
    "15-3-7": "5",
    "15-3-8": "1",
    "15-4-0": "0",
    "15-4-1": "5",
    "15-4-2": "5",
    "15-4-3": "5",
    "15-4-4": "5",
    "15-4-5": "5",
    "15-4-6": "5",
    "15-4-7": "5",
    "15-4-8": "0",
    "15-5-0": "0",
    "15-5-1": "16",
    "15-5-2": "e",
    "15-5-3": "1",
    "15-5-4": "1",
    "15-5-5": "1",
    "15-5-6": "e",
    "15-5-7": "16",
    "15-5-8": "0",
    "16-1-1": "0",
    "16-1-2": "20",
    "16-1-3": "e",
    "16-1-4": "e",
    "16-1-5": "e",
    "16-1-6": "20",
    "16-1-7": "0",
    "16-2-1": "0",
    "16-2-2": "5",
    "16-2-3": "5",
    "16-2-4": "5",
    "16-2-5": "5",
    "16-2-6": "5",
    "16-2-7": "0",
    "16-3-1": "1",
    "16-3-2": "5",
    "16-3-3": "5",
    "16-3-4": "5",
    "16-3-5": "5",
    "16-3-6": "5",
    "16-3-7": "1",
    "16-4-1": "0",
    "16-4-2": "5",
    "16-4-3": "5",
    "16-4-4": "5",
    "16-4-5": "5",
    "16-4-6": "5",
    "16-4-7": "0",
    "16-5-1": "0",
    "16-5-2": "20",
    "16-5-3": "e",
    "16-5-4": "1",
    "16-5-5": "e",
    "16-5-6": "20",
    "16-5-7": "0",
    "17-1-2": "0",
    "17-1-3": "20",
    "17-1-4": "e",
    "17-1-5": "20",
    "17-1-6": "0",
    "17-2-2": "0",
    "17-2-3": "5",
    "17-2-4": "5",
    "17-2-5": "5",
    "17-2-6": "0",
    "17-3-2": "1",
    "17-3-3": "5",
    "17-3-4": "5",
    "17-3-5": "5",
    "17-3-6": "1",
    "17-4-2": "0",
    "17-4-3": "5",
    "17-4-4": "5",
    "17-4-5": "5",
    "17-4-6": "0",
    "17-5-2": "0",
    "17-5-3": "20",
    "17-5-4": "e",
    "17-5-5": "20",
    "17-5-6": "0"
  },
  "inventorys": 
  [
    {"pos": "1-3-4", "loot": "futurepack:chests/ld_special"},
	{"pos": "1-3-3", "loot": "futurepack:chests/ld_common"},
	{"pos": "1-3-5", "loot": "futurepack:chests/ld_common"}
  ],

  "doors": [
    {
      "facing": 5,
      "w": 1,
      "h": 3,
      "d": 3,
      "start": "17,2,3"
    }
  ],
  "stateMap": {
    "0": "futurepack:color_iron_gray:",
    "1": "futurepack:color_iron_purple:",
    "10": "futurepack:color_gitter_pane_purple:east\u003dtrue;north\u003dfalse;south\u003dtrue;waterlogged\u003dfalse;west\u003dfalse",
    "11": "futurepack:color_gitter_pane_black:east\u003dtrue;north\u003dfalse;south\u003dtrue;waterlogged\u003dfalse;west\u003dfalse",
    "12": "futurepack:sand_neon:",
    "13": "futurepack:color_gitter_pane_purple:east\u003dtrue;north\u003dtrue;south\u003dfalse;waterlogged\u003dfalse;west\u003dtrue",
    "14": "futurepack:color_gitter_pane_purple:east\u003dtrue;north\u003dfalse;south\u003dtrue;waterlogged\u003dfalse;west\u003dtrue",
    "15": "minecraft:stone:",
    "16": "futurepack:quantanium:down\u003dfalse;east\u003dfalse;north\u003dfalse;south\u003dfalse;up\u003dfalse;west\u003dtrue",
    "17": "futurepack:color_gitter_pane_purple:east\u003dfalse;north\u003dfalse;south\u003dtrue;waterlogged\u003dfalse;west\u003dfalse",
    "18": "minecraft:lava:level\u003d0",
    "19": "futurepack:color_luftung_gray:",
    "1a": "futurepack:color_iron_fence_gray:east\u003dfalse;north\u003dfalse;south\u003dtrue;waterlogged\u003dfalse;west\u003dfalse",
    "1b": "futurepack:color_gitter_pane_gray:east\u003dtrue;north\u003dfalse;south\u003dtrue;waterlogged\u003dfalse;west\u003dtrue",
    "1c": "futurepack:color_gitter_pane_gray:east\u003dfalse;north\u003dfalse;south\u003dtrue;waterlogged\u003dfalse;west\u003dfalse",
    "1d": "minecraft:lava:level\u003d8",
    "1e": "futurepack:color_iron_slab_purple:type\u003dtop;waterlogged\u003dfalse",
    "1f": "minecraft:lava:level\u003d2",
    "2": "futurepack:quantanium:down\u003dfalse;east\u003dfalse;north\u003dfalse;south\u003dtrue;up\u003dfalse;west\u003dfalse",
    "20": "futurepack:quantanium:down\u003dfalse;east\u003dfalse;north\u003dfalse;south\u003dfalse;up\u003dfalse;west\u003dfalse",
    "3": "futurepack:quantanium:down\u003dfalse;east\u003dfalse;north\u003dtrue;south\u003dtrue;up\u003dfalse;west\u003dfalse",
    "4": "futurepack:quantanium:down\u003dfalse;east\u003dfalse;north\u003dtrue;south\u003dfalse;up\u003dfalse;west\u003dfalse",
    "5": "minecraft:air:",
    "6": "futurepack:color_iron_stair_black:facing\u003dsouth;half\u003dtop;shape\u003douter_right;waterlogged\u003dfalse",
    "7": "futurepack:color_iron_stair_black:facing\u003dwest;half\u003dtop;shape\u003dstraight;waterlogged\u003dfalse",
    "8": "futurepack:color_iron_stair_black:facing\u003dnorth;half\u003dtop;shape\u003douter_left;waterlogged\u003dfalse",
    "9": "futurepack:wardrobe_black_large_1:",
    "a": "futurepack:color_iron_stair_black:facing\u003dsouth;half\u003dbottom;shape\u003douter_right;waterlogged\u003dfalse",
    "b": "futurepack:color_iron_stair_black:facing\u003dwest;half\u003dbottom;shape\u003dstraight;waterlogged\u003dfalse",
    "c": "futurepack:color_iron_stair_black:facing\u003dnorth;half\u003dbottom;shape\u003douter_left;waterlogged\u003dfalse",
    "d": "futurepack:quantanium:down\u003dfalse;east\u003dtrue;north\u003dfalse;south\u003dfalse;up\u003dfalse;west\u003dfalse",
    "e": "futurepack:color_iron_black:",
    "f": "futurepack:quantanium:down\u003dfalse;east\u003dtrue;north\u003dfalse;south\u003dfalse;up\u003dfalse;west\u003dtrue"
  }
}