{
	"type": "futurepack:tyros",
	"generator": {
		"biome_source": {
			"type": "futurepack:remapped",
			"biomeprovider": {
				"seed": 74,
				"large_biomes": false,
				"type": "minecraft:vanilla_layered"
			},
			"biome_map": {
                "minecraft:ocean": "futurepack:tyros_swamp",
				"minecraft:deep_ocean": "minecraft:ocean",
				"minecraft:beach": "futurepack:tyros_swamp",
				"minecraft:snowy_beach": "futurepack:tyros_swamp",
				"minecraft:river": "futurepack:tyros_swamp",
				"minecraft:swamp": "futurepack:tyros_swamp",
				"minecraft:flower_forest": "futurepack:tyros_swamp",
				"minecraft:swamp_hills": "futurepack:tyros_swamp",
		
				"minecraft:mountains": "futurepack:tyros_mountain",
				"minecraft:mountain_edge": "futurepack:tyros_mountain",
				"minecraft:jungle_hills": "futurepack:tyros_mountain",
				"minecraft:snowy_taiga_hills": "futurepack:tyros_mountain",
				"minecraft:gravelly_mountains": "futurepack:tyros_mountain",
				"minecraft:modified_gravelly_mountains": "futurepack:tyros_mountain",
		
				"minecraft:birch_forest": "futurepack:tyros_palirie_forest",
				"minecraft:forest": "futurepack:tyros_palirie_forest",
				"minecraft:dark_forest": "futurepack:tyros_palirie_forest",
				"minecraft:tall_birch_forest": "futurepack:tyros_palirie_forest",

				"minecraft:desert": "futurepack:tyros_rockdesert",
				"minecraft:desert_hills": "futurepack:tyros_rockdesert_flat",
				"minecraft:badlands": "futurepack:tyros_rockdesert",
				"minecraft:eroded_badlands": "futurepack:tyros_rockdesert",
				"minecraft:badlands_plateau": "futurepack:tyros_rockdesert_flat",	
				"minecraft:snowy_tundra": "futurepack:tyros_rockdesert_flat",
				"minecraft:snowy_mountains": "futurepack:tyros_rockdesert",
				"minecraft:stone_shore": "futurepack:tyros_rockdesert"
			},
			"default_biome": "futurepack:tyros"
		},
		"seed": 7474,
		"settings": "minecraft:overworld",
		"type": "minecraft:noise"
	}
}

