{
	"_comment": "copy of minecraft:flower_warm",
	"type": "minecraft:decorated",
	"config": 
	{
		"feature": 
		{
			"config": 
			{
				"feature": 
				{
					"type": "minecraft:decorated",
					"config": 
					{
						"feature": 
						{	
							"type": "minecraft:flower",
							"config": 
							{
								"can_replace": false,
								"project": true,
								"need_water": false,
								"xspread": 7,
								"yspread": 3,
								"zspread": 7,
								"whitelist": [
								],
								"blacklist": [
								],
								"tries": 64,
								"state_provider": {
									"entries": [
										{
											"weight": 1,
											"data": {
												"Name": "futurepack:mendel_berry",
												"Properties": {
													"age": "1"
												}
											}
										},
										{
											"weight": 1,
											"data": {
												"Name": "futurepack:mendel_berry",
												"Properties": {
													"age": "2"
												}
											}
										},
										{
											"weight": 1,
											"data": {
												"Name": "futurepack:mendel_berry",
												"Properties": {
													"age": "3"
												}
											}
										}
									],
									"type": "minecraft:weighted_state_provider"
								},
								"block_placer": {
									"type": "minecraft:simple_block_placer"
								}
							}
							
						},
						"decorator": {
							"config": {
							},
							"type": "minecraft:spread_32_above"
						}
					}
				},
				"decorator": {
					"config": {
						"outer": {
							"config": {
							},
							"type": "minecraft:square"
						},
						"inner": {
							"config": {
							},
							"type": "minecraft:heightmap"
						}
					},
					"type": "minecraft:decorated"
				}
			},
			"type": "minecraft:decorated"
		},
		"decorator": {
			"config": {
				"count": 4
			},
			"type": "minecraft:count"
		}
	}
}
